<?xml version="1.0" encoding="utf-8"?>
<!-- Generator: Adobe Illustrator 16.0.0, SVG Export Plug-In . SVG Version: 6.00 Build 0)  -->
<!DOCTYPE svg PUBLIC "-//W3C//DTD SVG 1.1//EN" "http://www.w3.org/Graphics/SVG/1.1/DTD/svg11.dtd">
<svg version="1.1" id="Layer_1" xmlns="http://www.w3.org/2000/svg" xmlns:xlink="http://www.w3.org/1999/xlink" x="0px" y="0px"
	 width="40px" height="40px" viewBox="0 0 40 40" enable-background="new 0 0 40 40" xml:space="preserve">
<g>
	<path fill="#247DC1" d="M25.882,34.416H14.119c-1.456,0-2.662-0.447-3.583-1.324c-0.941-0.895-1.419-2.098-1.419-3.57
		c0-0.504,0.017-1.006,0.051-1.49c0.007-0.115,0.018-0.328,0.03-0.584c0.051-1.037,0.098-1.932,0.176-2.367
		c0.105-0.586,0.24-1.135,0.401-1.641c0.174-0.543,0.409-1.076,0.698-1.584c0.309-0.541,0.673-1.013,1.082-1.407
		c0.454-0.432,0.994-0.771,1.61-1.015c0.614-0.244,1.293-0.368,2.017-0.368c0.454,0,0.835,0.192,1.338,0.523l0.991,0.637
		c0.264,0.167,0.646,0.334,1.128,0.492c0.896,0.29,1.824,0.292,2.725-0.001c0.48-0.157,0.863-0.324,1.135-0.496l0.992-0.639
		c0.495-0.325,0.876-0.517,1.327-0.517c0.724,0,1.404,0.125,2.021,0.37c0.612,0.241,1.152,0.581,1.602,1.006
		c0.414,0.4,0.777,0.872,1.086,1.413c0.289,0.508,0.524,1.041,0.696,1.584c0.165,0.51,0.299,1.062,0.402,1.641
		c0.078,0.432,0.123,1.279,0.176,2.342c0.013,0.268,0.023,0.488,0.032,0.607c0.033,0.488,0.05,0.99,0.05,1.492
		c0,1.473-0.478,2.674-1.42,3.57C28.542,33.969,27.337,34.416,25.882,34.416z M14.899,21.895c-0.255,0.021-0.489,0.074-0.699,0.158
		c-0.282,0.109-0.516,0.254-0.701,0.43c-0.208,0.201-0.406,0.461-0.582,0.77c-0.192,0.336-0.347,0.688-0.461,1.043
		c-0.124,0.389-0.229,0.82-0.312,1.281c-0.052,0.293-0.108,1.449-0.135,2.006c-0.015,0.283-0.026,0.516-0.035,0.645
		c-0.029,0.42-0.043,0.855-0.043,1.295c0,0.908,0.311,1.309,0.544,1.531c0.387,0.369,0.925,0.547,1.643,0.547h11.763
		c0.718,0,1.255-0.178,1.641-0.547c0.234-0.223,0.545-0.623,0.545-1.531c0-0.438-0.013-0.875-0.043-1.297
		c-0.01-0.127-0.021-0.371-0.035-0.666c-0.027-0.551-0.083-1.693-0.135-1.982c-0.082-0.457-0.187-0.887-0.312-1.281
		c-0.113-0.355-0.27-0.709-0.46-1.043c-0.177-0.309-0.374-0.568-0.587-0.775c-0.179-0.17-0.413-0.314-0.692-0.424
		c-0.216-0.086-0.446-0.137-0.702-0.158c-0.023,0.014-0.05,0.031-0.077,0.049l-1.013,0.65c-0.483,0.307-1.062,0.566-1.777,0.801
		c-1.468,0.477-3.001,0.475-4.463,0.002c-0.718-0.236-1.297-0.496-1.774-0.797l-1.011-0.65C14.954,21.93,14.925,21.91,14.899,21.895
		z"/>
	<path fill="#247DC1" d="M20,18.738c-1.808,0-3.372-0.649-4.65-1.928c-1.278-1.276-1.925-2.841-1.925-4.648
		c0-1.81,0.648-3.375,1.927-4.65C16.63,6.233,18.194,5.585,20,5.585c1.805,0,3.369,0.648,4.649,1.928
		c1.277,1.274,1.927,2.839,1.927,4.648c0,1.807-0.649,3.372-1.927,4.649C23.372,18.089,21.807,18.738,20,18.738z M20,8.399
		c-1.046,0-1.916,0.361-2.658,1.104c-0.742,0.74-1.102,1.609-1.102,2.658c0,1.048,0.36,1.917,1.101,2.658
		c0.743,0.742,1.612,1.104,2.659,1.104c1.047,0,1.917-0.361,2.657-1.103c0.742-0.742,1.104-1.612,1.104-2.659
		c0-1.049-0.36-1.918-1.102-2.657C21.916,8.761,21.046,8.399,20,8.399z"/>
</g>
<path fill="#247DC1" d="M38.415,39.822H1.584c-0.777,0-1.407-0.631-1.407-1.406v-5.41c0-0.775,0.63-1.406,1.407-1.406
	c0.778,0,1.408,0.631,1.408,1.406v4.002h34.015V2.993H2.993v20.542c0,0.775-0.63,1.406-1.408,1.406
	c-0.777,0-1.407-0.631-1.407-1.406V1.584c0-0.777,0.63-1.407,1.407-1.407h36.831c0.776,0,1.407,0.63,1.407,1.407v36.832
	C39.822,39.191,39.191,39.822,38.415,39.822z"/>
</svg>
