<?xml version="1.0" encoding="utf-8"?>
<!-- Generator: Adobe Illustrator 16.0.0, SVG Export Plug-In . SVG Version: 6.00 Build 0)  -->
<!DOCTYPE svg PUBLIC "-//W3C//DTD SVG 1.1//EN" "http://www.w3.org/Graphics/SVG/1.1/DTD/svg11.dtd">
<svg version="1.1" id="Layer_1" xmlns="http://www.w3.org/2000/svg" xmlns:xlink="http://www.w3.org/1999/xlink" x="0px" y="0px"
	 width="88px" height="130px" viewBox="0 0 88 130" enable-background="new 0 0 88 130" xml:space="preserve">
<g>
	<path fill="#8CC53F" d="M19.112,86.866L4.964,58.725c-1.794-3.802-2.688-8.665-2.688-14.588c0-11.513,4.076-21.352,12.225-29.501
		C22.649,6.488,32.481,2.41,44.002,2.41c11.516,0,21.349,4.079,29.498,12.226c8.152,8.149,12.226,17.989,12.226,29.501
		c0,5.924-0.896,10.786-2.689,14.588l-29.665,63.079c-0.867,1.793-2.159,3.207-3.87,4.238c-1.713,1.029-3.548,1.548-5.499,1.548
		c-1.958,0-3.791-0.519-5.504-1.548c-1.709-1.031-2.974-2.445-3.791-4.238l-6.655-14.117"/>
	<path fill="#133E67" d="M44.002,129.173c-2.234,0-4.36-0.597-6.319-1.774c-1.981-1.194-3.467-2.856-4.415-4.938l-6.647-14.099
		c-0.373-0.792-0.033-1.734,0.757-2.106c0.788-0.376,1.733-0.034,2.105,0.755l6.655,14.117c0.698,1.53,1.735,2.688,3.178,3.559
		c2.954,1.777,6.409,1.781,9.369-0.002c1.457-0.876,2.523-2.045,3.261-3.57l29.658-63.063c1.685-3.573,2.539-8.254,2.539-13.915
		c0-11.032-3.957-20.581-11.762-28.383C64.573,7.95,55.024,3.993,44.002,3.993c-11.026,0-20.576,3.957-28.384,11.761
		C7.815,23.56,3.857,33.109,3.857,44.137c0,5.664,0.854,10.345,2.538,13.913l14.131,28.105c0.393,0.78,0.077,1.732-0.703,2.125
		c-0.782,0.393-1.732,0.078-2.125-0.703L3.55,59.436c-1.901-4.029-2.857-9.165-2.857-15.299c0-11.898,4.269-22.2,12.688-30.621
		c8.422-8.42,18.725-12.689,30.621-12.689c11.893,0,22.193,4.269,30.617,12.689c8.42,8.417,12.688,18.719,12.688,30.621
		c0,6.131-0.955,11.266-2.841,15.263l-29.663,63.078c-1.008,2.082-2.514,3.73-4.487,4.92
		C48.356,128.576,46.231,129.173,44.002,129.173z"/>
	<g>
		<path fill="#FFFFFF" d="M21.712,23.104c-6.02,6.026-9.037,13.296-9.037,21.807c0,8.517,3.018,15.783,9.037,21.806
			c6.028,6.026,13.296,9.035,21.812,9.035c8.509,0,15.779-3.009,21.804-9.035c6.03-6.022,9.041-13.289,9.041-21.806
			c0-8.51-3.011-15.78-9.041-21.807c-6.024-6.023-13.295-9.035-21.804-9.035C35.008,14.069,27.74,17.082,21.712,23.104z"/>
	</g>
	<g>
		<g>
			<g>
				<path fill="#287EC2" d="M61.748,50.181c1.576,0,2.857-1.348,2.857-3.014l0.061-1.697h-4.331c-0.028,0-0.054,0.011-0.074,0.031
					c0.002,0.029,0.005,0.06,0.005,0.094v4.585H61.748L61.748,50.181z"/>
				<path fill="#287EC2" d="M59.185,44.515c0.211,0,0.94,0,1.152,0h4.364l0.172-4.768c0-1.663-2.376-3.658-5.272-3.669
					c-2.895-0.008-5.094,2.006-5.094,3.669l0.171,4.768H59.185z"/>
				<path fill="#287EC2" d="M54.712,45.47l0.061,1.697c0,1.666,1.281,3.014,2.859,3.014h1.623v-4.585
					c0-0.034,0.001-0.065,0.004-0.094c-0.021-0.02-0.046-0.031-0.075-0.031H54.712L54.712,45.47z"/>
			</g>
		</g>
		<g>
			<g>
				<path fill="#287EC2" d="M36.691,51.579c-8.006,0-14.52-6.516-14.52-14.522h1.803c0,7.015,5.704,12.72,12.717,12.72
					c7.012,0,12.717-5.705,12.717-12.72h1.802C51.21,45.062,44.696,51.579,36.691,51.579z"/>
			</g>
		</g>
		<g>
			<path fill="#C2B59C" d="M31.734,23.587c-0.58,0-1.052,0.471-1.052,1.051c0,0.003,0,0.003,0,0.006
				c-4.76,2.256-8.061,7.105-8.061,12.715h0.9c0-5.255,3.096-9.796,7.558-11.905c0.181,0.145,0.405,0.235,0.654,0.235
				c0.581,0,1.051-0.473,1.051-1.051C32.785,24.058,32.314,23.587,31.734,23.587z"/>
			<path fill="#C2B59C" d="M41.747,24.234c-0.07-0.516-0.506-0.912-1.038-0.912c-0.579,0-1.053,0.471-1.053,1.054
				c0,0.579,0.474,1.051,1.053,1.051c0.302,0,0.572-0.13,0.763-0.333c4.904,1.917,8.388,6.691,8.388,12.264h0.9
				C50.76,31.383,47.013,26.267,41.747,24.234z"/>
		</g>
		<path fill="#287EC2" d="M60.378,51.558c-0.057-0.465-0.441-0.799-0.85-0.742c-0.303,0.04-0.581,0.288-0.615,0.592
			c-0.037,0.31,0.7,6.612-2.798,10.561c-1.812,2.049-4.496,3.066-7.999,3.026c-3.447-0.039-6.114-1.116-7.928-3.202
			c-3.595-4.134-2.762-10.949-2.752-11.017l-1.49-0.196c-0.039,0.306-0.934,7.541,3.104,12.193c2.107,2.428,5.151,3.681,9.048,3.726
			c0.07,0,0.142,0,0.213,0c3.852,0,6.854-1.19,8.931-3.535c1.854-2.097,2.643-4.75,2.953-7.001
			C60.619,53.489,60.378,51.558,60.378,51.558z"/>
	</g>
</g>
</svg>
