<?xml version="1.0" encoding="utf-8"?>
<!-- Generator: Adobe Illustrator 16.0.0, SVG Export Plug-In . SVG Version: 6.00 Build 0)  -->
<!DOCTYPE svg PUBLIC "-//W3C//DTD SVG 1.1//EN" "http://www.w3.org/Graphics/SVG/1.1/DTD/svg11.dtd">
<svg version="1.1" id="Layer_1" xmlns="http://www.w3.org/2000/svg" xmlns:xlink="http://www.w3.org/1999/xlink" x="0px" y="0px"
	 width="34px" height="34px" viewBox="0 0 34 34" enable-background="new 0 0 34 34" xml:space="preserve">
<g>
	<path fill="#257EC2" d="M25.011,33.968c-0.456,0-0.912-0.031-1.354-0.091c-0.446-0.059-0.924-0.165-1.469-0.318
		c-0.808-0.224-1.282-1.062-1.054-1.872c0.224-0.811,1.067-1.282,1.87-1.054c0.407,0.114,0.765,0.192,1.06,0.231
		c1.334,0.182,2.818-0.066,4.305-0.873c1.658-0.92,1.957-1.475,1.998-1.577c0.095-0.216,0.229-0.582,0.382-1.255
		c0.104-0.452,0.149-0.767,0.169-0.982c-0.165-0.106-0.44-0.268-0.883-0.484c-0.029-0.02-0.057-0.031-0.083-0.047
		c-0.267-0.157-0.652-0.37-1.146-0.642c-0.517-0.279-0.988-0.538-1.417-0.778c-0.423-0.236-0.828-0.472-1.208-0.7
		c-0.043-0.023-0.085-0.055-0.126-0.082c-0.061-0.048-0.228-0.162-0.503-0.354c-0.193-0.134-0.337-0.22-0.44-0.283
		c-0.044,0.035-0.091,0.079-0.149,0.138c-0.376,0.354-0.724,0.747-1.035,1.168c-0.4,0.535-0.838,1.046-1.294,1.515
		c-0.464,0.468-1.176,1.081-2.098,1.081c-0.313,0-0.646-0.066-1.017-0.204c-0.27-0.099-0.469-0.185-0.608-0.256
		c-0.134-0.07-0.348-0.188-0.646-0.374c-0.179-0.109-0.3-0.181-0.349-0.212c-2.123-1.176-3.972-2.549-5.498-4.074
		c-1.527-1.526-2.896-3.375-4.072-5.494c-0.005-0.006-0.009-0.015-0.013-0.021c-0.032-0.055-0.099-0.166-0.204-0.333
		c-0.19-0.307-0.312-0.524-0.375-0.65c-0.066-0.131-0.153-0.332-0.252-0.6c-0.137-0.369-0.203-0.704-0.203-1.019
		c0-0.923,0.614-1.636,1.076-2.092c0.472-0.461,0.982-0.898,1.521-1.299c0.417-0.312,0.809-0.661,1.167-1.036
		C11.12,8.983,11.164,8.931,11.2,8.89c-0.06-0.094-0.149-0.24-0.286-0.437c-0.197-0.285-0.316-0.457-0.357-0.512
		c-0.029-0.039-0.055-0.078-0.08-0.119c-0.226-0.377-0.461-0.782-0.703-1.212C9.537,6.188,9.276,5.714,8.996,5.194
		c-0.268-0.49-0.48-0.873-0.635-1.142C8.343,4.024,8.329,3.996,8.314,3.968C8.096,3.53,7.935,3.255,7.829,3.087
		C7.597,3.106,7.287,3.154,6.846,3.255C6.169,3.41,5.804,3.542,5.617,3.625c-0.13,0.054-0.686,0.352-1.613,2.024
		c-0.613,1.13-0.928,2.26-0.928,3.344c0,0.324,0.022,0.641,0.062,0.945c0.041,0.298,0.119,0.654,0.232,1.058
		c0.119,0.423,0.214,0.742,0.287,0.947c0.077,0.216,0.224,0.614,0.44,1.19c0.231,0.618,0.369,0.995,0.415,1.134
		c0.46,1.288,1.025,2.481,1.668,3.51c1.091,1.769,2.608,3.629,4.512,5.533c1.903,1.903,3.764,3.421,5.528,4.511
		c0.714,0.44,0.936,1.377,0.496,2.093c-0.442,0.712-1.379,0.936-2.093,0.495c-1.964-1.215-4.009-2.879-6.081-4.951
		c-2.07-2.065-3.734-4.114-4.946-6.077c-0.755-1.211-1.416-2.6-1.96-4.126c-0.055-0.163-0.18-0.5-0.387-1.053
		c-0.224-0.596-0.375-1.009-0.458-1.239c-0.09-0.255-0.206-0.632-0.348-1.143C0.29,11.271,0.186,10.79,0.126,10.35
		c-0.06-0.438-0.09-0.895-0.09-1.357c0-1.594,0.438-3.211,1.303-4.806c1.021-1.84,1.994-2.9,3.075-3.354
		c0.429-0.189,1.009-0.371,1.75-0.541c1.326-0.305,2.228-0.35,2.885-0.095c0.697,0.255,1.219,0.889,1.964,2.369
		c0.164,0.282,0.382,0.677,0.655,1.178c0.276,0.51,0.527,0.965,0.758,1.375c0.216,0.387,0.425,0.748,0.626,1.085
		c0.068,0.096,0.188,0.269,0.363,0.519c0.257,0.373,0.449,0.692,0.589,0.979c0.205,0.43,0.307,0.86,0.307,1.29
		c0,0.935-0.596,1.671-1.042,2.143c-0.477,0.501-0.999,0.965-1.554,1.378c-0.431,0.322-0.837,0.668-1.208,1.032
		c-0.029,0.028-0.055,0.057-0.08,0.082c0.018,0.041,0.032,0.075,0.047,0.103c0.042,0.086,0.124,0.219,0.242,0.409
		c0.14,0.226,0.233,0.388,0.285,0.48l0.002-0.001c1.039,1.87,2.238,3.491,3.563,4.817c1.326,1.325,2.947,2.524,4.82,3.562
		c0.012,0.008,0.188,0.11,0.478,0.287c0.2,0.126,0.34,0.209,0.421,0.248c0.021,0.012,0.055,0.027,0.093,0.043
		c0.027-0.023,0.055-0.051,0.086-0.086c0.358-0.362,0.704-0.768,1.022-1.2c0.417-0.554,0.881-1.077,1.383-1.549
		c0.47-0.453,1.207-1.051,2.142-1.051c0.433,0,0.861,0.106,1.282,0.307c0.295,0.142,0.617,0.335,0.987,0.595
		c0.247,0.169,0.425,0.287,0.519,0.357c0.339,0.205,0.7,0.413,1.082,0.625c0.417,0.236,0.871,0.488,1.373,0.76
		c0.505,0.275,0.9,0.495,1.184,0.656c1.482,0.748,2.116,1.271,2.371,1.967c0.11,0.287,0.161,0.609,0.161,0.995
		c0,0.52-0.084,1.137-0.259,1.888c-0.165,0.731-0.347,1.313-0.549,1.774c-0.442,1.058-1.505,2.033-3.331,3.048
		C28.222,33.531,26.605,33.968,25.011,33.968z"/>
</g>
</svg>
