<?xml version="1.0" encoding="utf-8"?>
<!-- Generator: Adobe Illustrator 16.0.0, SVG Export Plug-In . SVG Version: 6.00 Build 0)  -->
<!DOCTYPE svg PUBLIC "-//W3C//DTD SVG 1.1//EN" "http://www.w3.org/Graphics/SVG/1.1/DTD/svg11.dtd">
<svg version="1.1" id="Layer_1" xmlns="http://www.w3.org/2000/svg" xmlns:xlink="http://www.w3.org/1999/xlink" x="0px" y="0px"
	 width="21.754px" height="90px" viewBox="0 0 21.754 90" enable-background="new 0 0 21.754 90" xml:space="preserve">
<g>
	<g>
		<path fill="#C2B59C" d="M0.043,45.184c0-1.078,0.409-2.057,1.183-2.83l1.84-1.934l5.711-5.616l6.094-6.092
			c0.773-0.774,1.75-1.184,2.829-1.184c1.075,0,2.053,0.409,2.828,1.182c0.775,0.776,1.184,1.754,1.184,2.831
			c0,1.139-0.923,2.062-2.062,2.062c-1.047,0-1.912-0.781-2.045-1.791l-5.922,5.92l-5.674,5.581l-1.778,1.869l13.385,13.385
			c0.173-0.998,1.05-1.777,2.08-1.754c1.121,0.027,2.017,0.893,2.017,2.014c0,1.076-0.408,2.055-1.182,2.828
			c-0.775,0.773-1.753,1.184-2.83,1.184c-1.079,0-2.058-0.41-2.831-1.186L1.225,48.01C0.452,47.237,0.043,46.259,0.043,45.184z"/>
	</g>
	<path fill="#C2B59C" d="M19.648,55.953"/>
	<path fill="#C2B59C" d="M17.586,33.912V2.204c0-1.139,0.924-2.062,2.062-2.062c1.14,0,2.062,0.923,2.062,2.062v31.709
		c0,1.139-0.923,2.063-2.062,2.062C18.51,35.975,17.586,35.051,17.586,33.912z"/>
	<path fill="#C2B59C" d="M17.586,87.674V55.965c0-1.139,0.924-2.061,2.062-2.061c1.14,0,2.062,0.922,2.062,2.061v31.709
		c0,1.141-0.923,2.062-2.062,2.062C18.51,89.736,17.586,88.814,17.586,87.674z"/>
</g>
</svg>
