<?xml version="1.0" encoding="utf-8"?>
<!-- Generator: Adobe Illustrator 16.0.0, SVG Export Plug-In . SVG Version: 6.00 Build 0)  -->
<!DOCTYPE svg PUBLIC "-//W3C//DTD SVG 1.1//EN" "http://www.w3.org/Graphics/SVG/1.1/DTD/svg11.dtd">
<svg version="1.1" id="Layer_1" xmlns="http://www.w3.org/2000/svg" xmlns:xlink="http://www.w3.org/1999/xlink" x="0px" y="0px"
	 width="64.084px" height="64px" viewBox="0 0 64.084 64" enable-background="new 0 0 64.084 64" xml:space="preserve">
<path fill="#8CC53F" d="M27.83,63.745c-1.709,0-3.256-0.644-4.474-1.86c-1.181-1.175-1.807-2.706-1.807-4.424V42.471H6.562
	c-1.718,0-3.25-0.626-4.428-1.811c-1.211-1.211-1.853-2.756-1.853-4.466v-8.454c0-1.71,0.642-3.256,1.856-4.47
	C3.32,22.087,4.85,21.46,6.562,21.46h5.258c1.109,0,2.008,0.899,2.008,2.008c0,1.108-0.899,2.008-2.008,2.008H6.562
	c-0.658,0-1.147,0.195-1.584,0.634c-0.471,0.471-0.681,0.974-0.681,1.631v8.454c0,0.657,0.21,1.159,0.68,1.63
	c0.436,0.437,0.923,0.631,1.585,0.631h16.996c1.108,0,2.008,0.899,2.008,2.008V57.46c0,0.661,0.193,1.148,0.627,1.58
	c0.477,0.478,0.981,0.688,1.638,0.688h8.453c0.655-0.002,1.161-0.213,1.634-0.685c0.433-0.434,0.63-0.926,0.633-1.592l-0.006-16.988
	c0-0.533,0.212-1.044,0.588-1.42c0.377-0.377,0.888-0.589,1.42-0.589l0,0l16.999,0.004c0.659-0.002,1.149-0.197,1.582-0.631
	c0.472-0.473,0.683-0.978,0.685-1.641v-8.447c0-0.657-0.211-1.16-0.683-1.63c-0.44-0.439-0.929-0.634-1.584-0.634H40.552
	c-0.532,0-1.043-0.212-1.42-0.588c-0.376-0.377-0.588-0.888-0.588-1.42L38.55,6.472c-0.003-0.656-0.2-1.147-0.637-1.585
	c-0.47-0.469-0.973-0.679-1.63-0.679H27.83c-0.658,0-1.161,0.209-1.63,0.679c-0.438,0.44-0.635,0.93-0.635,1.585v16.996
	c0,1.108-0.899,2.008-2.008,2.008c-1.109,0-2.008-0.899-2.008-2.008V6.473c0-1.704,0.625-3.233,1.808-4.421
	c1.216-1.217,2.762-1.859,4.473-1.859h8.453c1.708,0,3.254,0.641,4.469,1.854c1.179,1.179,1.805,2.706,1.813,4.416L42.561,21.46
	h14.99c1.73,0,3.218,0.608,4.419,1.806c1.219,1.215,1.863,2.762,1.863,4.475v8.454c-0.006,1.74-0.631,3.241-1.855,4.468
	c-1.172,1.18-2.701,1.807-4.42,1.812l-14.997-0.004l0.005,14.99c-0.009,1.723-0.635,3.249-1.812,4.427
	c-1.216,1.21-2.758,1.851-4.463,1.856H27.83z"/>
</svg>
