<?xml version="1.0" encoding="utf-8"?>
<!-- Generator: Adobe Illustrator 16.0.0, SVG Export Plug-In . SVG Version: 6.00 Build 0)  -->
<!DOCTYPE svg PUBLIC "-//W3C//DTD SVG 1.1//EN" "http://www.w3.org/Graphics/SVG/1.1/DTD/svg11.dtd">
<svg version="1.1" id="Layer_1" xmlns="http://www.w3.org/2000/svg" xmlns:xlink="http://www.w3.org/1999/xlink" x="0px" y="0px"
	 width="74px" height="64px" viewBox="0 0 74 64" enable-background="new 0 0 74 64" xml:space="preserve">
<g>
	<path fill="#237dc2" d="M36.501,38.857c-0.294,0-0.59-0.065-0.863-0.196L1.321,22.129c-0.688-0.332-1.125-1.029-1.125-1.792v-1.54
		c0-0.764,0.438-1.46,1.125-1.792L35.638,0.472c0.552-0.265,1.193-0.261,1.741,0.007l35.33,17.346
		c0.683,0.336,1.115,1.034,1.111,1.796c-0.004,0.762-0.442,1.455-1.129,1.784l-13.09,6.264c-0.993,0.473-2.181,0.055-2.653-0.935
		c-0.476-0.992-0.058-2.18,0.934-2.654l9.391-4.492L36.493,4.477L5.168,19.567l31.327,15.09l6.246-3.051
		c0.989-0.483,2.179-0.071,2.661,0.914c0.483,0.989,0.073,2.179-0.914,2.659l-7.113,3.473C37.1,38.79,36.8,38.857,36.501,38.857z"/>
	<path fill="#237dc2" d="M53.005,52.814c-1.088,0-1.975-0.873-1.988-1.965l-0.266-21.286l-14.717-8.262
		c-0.958-0.54-1.298-1.75-0.762-2.708c0.54-0.958,1.751-1.3,2.709-0.761l15.72,8.824c0.618,0.349,1.005,1,1.015,1.708l0.277,22.437
		c0.014,1.097-0.866,1.998-1.965,2.012C53.021,52.814,53.013,52.814,53.005,52.814z"/>
	<path fill="#237dc2" d="M37.01,53.679c-0.305,0-0.606-0.066-0.885-0.208L12.333,41.679c-0.677-0.338-1.105-1.026-1.105-1.782
		V25.652c0-1.099,0.89-1.989,1.987-1.989c1.099,0,1.99,0.89,1.99,1.989v13.011l21.821,10.818l7.123-3.397
		c0.989-0.469,2.177-0.051,2.651,0.942c0.472,0.993,0.052,2.179-0.939,2.649l-7.999,3.81C37.591,53.617,37.3,53.679,37.01,53.679z"
		/>
	<path fill="#237dc2" d="M58.756,43.689c-0.736,0-1.443-0.41-1.788-1.119c-0.479-0.987-0.069-2.177,0.918-2.657l2.147-1.044V25.087
		c0-1.099,0.89-1.989,1.988-1.989c1.098,0,1.99,0.89,1.99,1.989v15.025c0,0.762-0.438,1.454-1.12,1.788l-3.265,1.586
		C59.347,43.626,59.05,43.689,58.756,43.689z"/>
	<polygon fill-rule="evenodd" clip-rule="evenodd" fill="#237dc2" points="56.76,63.713 49.248,63.713 51.479,52.058 54.525,52.058
			"/>
</g>
</svg>
