<?xml version="1.0" encoding="UTF-8" standalone="no"?>
<svg width="30px" height="27px" viewBox="0 0 30 27" version="1.1" xmlns="http://www.w3.org/2000/svg" xmlns:xlink="http://www.w3.org/1999/xlink">
    <!-- Generator: Sketch 3.6.1 (26313) - http://www.bohemiancoding.com/sketch -->
    <title>Combined Shape</title>
    <desc>Created with Sketch.</desc>
    <defs></defs>
    <g id="Page-1" stroke="none" stroke-width="1" fill="none" fill-rule="evenodd">
        <g id="26--Iconografía-3" transform="translate(-47.000000, -235.000000)" fill="#000000">
            <path d="M54.4460629,248.385373 L56.5450206,243.280859 L59.017504,254.111731 C59.0920704,254.438262 59.3851338,254.673162 59.7281393,254.683455 L59.7501624,254.683455 C60.0841505,254.683455 60.3786011,254.468468 60.4705086,254.154593 L62.805651,246.204619 L63.5381359,248.345548 C63.6406214,248.643223 63.9276154,248.844204 64.2501585,248.844204 L70.2501533,248.844204 C70.6646038,248.844204 71.0001526,248.517673 71.0001526,248.114361 C71.0001526,247.711049 70.6646038,247.384518 70.2501533,247.384518 L64.7906782,247.384518 L63.4620088,243.504115 C63.3581361,243.200534 63.0560554,242.961078 62.7340326,243.005459 C62.4045531,243.012716 62.1191198,243.226353 62.0296401,243.534321 L59.8410293,250.986484 L57.4826499,240.657811 C57.4105112,240.345455 57.1386039,240.114774 56.8099915,240.088956 C56.4836334,240.067524 56.1754834,240.247074 56.0540962,240.544918 L53.2415553,247.384518 L47.7499993,247.384518 C47.3355488,247.384518 47,247.711049 47,248.114361 C47,248.517673 47.3355488,248.844204 47.7499993,248.844204 L53.7499941,248.844204 C54.0560632,248.84471 54.3329994,248.663136 54.4460629,248.385373 Z M74.3641208,237.565167 C72.6066079,235.854887 70.303026,235 68.0001379,235 C65.8451686,235 63.7075404,235.778949 62.0001431,237.276098 C60.2920521,235.778949 58.1551175,235 55.9999749,235 C53.6965664,235 51.3935049,235.854887 49.6359919,237.565167 C47.3055315,239.833502 46.5550119,243.028274 47.3155893,245.926216 L48.875588,245.926216 C48.0754731,243.419099 48.660039,240.579376 50.696569,238.597578 C52.112984,237.219229 53.9965662,236.460192 55.9999749,236.460192 C57.828586,236.460192 59.5391047,237.119498 60.9040168,238.278472 L62.0001431,239.275446 L63.0966161,238.277966 C64.4615282,237.119498 66.172047,236.459686 68.0001379,236.459686 C70.0035465,236.459686 71.8866085,237.218723 73.3035437,238.597241 C76.2281076,241.442532 76.2275874,246.073197 73.3035437,248.918657 L62.0001431,259.918447 L52.1214811,250.305443 L49.9999801,250.305443 L62.0001431,261.982933 L74.3641208,249.951068 C77.8786264,246.530678 77.8786264,240.985726 74.3641208,237.565167 Z" id="Combined-Shape"></path>
        </g>
    </g>
</svg>