<?xml version="1.0" encoding="UTF-8" standalone="no"?>
<svg width="30px" height="18px" viewBox="0 0 30 18" version="1.1" xmlns="http://www.w3.org/2000/svg" xmlns:xlink="http://www.w3.org/1999/xlink">
    <!-- Generator: Sketch 3.6.1 (26313) - http://www.bohemiancoding.com/sketch -->
    <title>Fill 1</title>
    <desc>Created with Sketch.</desc>
    <defs></defs>
    <g id="Page-1" stroke="none" stroke-width="1" fill="none" fill-rule="evenodd">
        <g id="24--Iconografía" transform="translate(-321.000000, -483.000000)" fill="#212121">
            <path d="M336.024445,494.418766 L347.643646,483.267958 C347.999214,482.910681 348.354781,482.910681 348.712059,483.267958 L350.715546,485.269736 C351.071114,485.671459 351.093337,486.027027 350.782215,486.338148 L336.557797,499.960836 C336.424459,500.094174 336.246675,500.160843 336.024445,500.160843 C335.800506,500.160843 335.624432,500.094174 335.491094,499.960836 L321.266676,486.338148 C320.911108,485.982581 320.911108,485.627013 321.266676,485.269736 L323.336832,483.267958 C323.6924,482.910681 324.047967,482.910681 324.405245,483.267958 L336.024445,494.418766 Z" id="Fill-1" transform="translate(336.000000, 491.580422) scale(1, -1) translate(-336.000000, -491.580422) "></path>
        </g>
    </g>
</svg>