<?xml version="1.0" encoding="UTF-8" standalone="no"?>
<svg width="30px" height="26px" viewBox="0 0 30 26" version="1.1" xmlns="http://www.w3.org/2000/svg" xmlns:xlink="http://www.w3.org/1999/xlink">
    <!-- Generator: Sketch 3.6.1 (26313) - http://www.bohemiancoding.com/sketch -->
    <title>Fill 1</title>
    <desc>Created with Sketch.</desc>
    <defs></defs>
    <g id="Page-1" stroke="none" stroke-width="1" fill="none" fill-rule="evenodd">
        <g id="24--Iconografía" transform="translate(-321.000000, -540.000000)" fill="#212121">
            <path d="M345.709714,553.794857 C347.808,551.696571 348.857143,549.710143 348.857143,547.835143 C348.857143,546.930857 348.737143,546.133286 348.497143,545.441143 C348.257143,544.749 347.950286,544.199571 347.576143,543.792 C347.202429,543.384857 346.747714,543.052714 346.212,542.796 C345.676286,542.539286 345.151714,542.366571 344.638286,542.277 C344.124857,542.187857 343.578,542.143286 342.997714,542.143286 C342.417429,542.143286 341.792143,542.285571 341.122714,542.570143 C340.452857,542.854714 339.836143,543.211714 339.272571,543.641571 C338.709,544.071 338.226429,544.473 337.824857,544.846714 C337.422857,545.220857 337.088143,545.564143 336.820286,545.876143 C336.619286,546.122143 336.345857,546.244714 336,546.244714 C335.653714,546.244714 335.380286,546.122143 335.179714,545.876143 C334.911857,545.564143 334.576714,545.220857 334.175143,544.846714 C333.773143,544.473 333.290571,544.071 332.727,543.641571 C332.163429,543.211714 331.546714,542.854714 330.877286,542.570143 C330.207429,542.285571 329.582143,542.143286 329.002286,542.143286 C328.421571,542.143286 327.874714,542.187857 327.361286,542.277 C326.847857,542.366571 326.323714,542.539286 325.788,542.796 C325.252286,543.052714 324.797143,543.384857 324.423429,543.792 C324.049286,544.199571 323.742429,544.749 323.502857,545.441143 C323.262429,546.133286 323.142857,546.930857 323.142857,547.835143 C323.142857,549.710143 324.186,551.691429 326.273143,553.778143 L336,563.153143 L345.709714,553.794857 Z M351,547.835143 C351,550.301571 349.722,552.813 347.166,555.368571 L336.736714,565.413 C336.535714,565.614 336.290143,565.714286 336,565.714286 C335.709429,565.714286 335.464286,565.614 335.263286,565.413 L324.816857,555.335143 C324.705,555.246 324.551571,555.100714 324.356571,554.899714 C324.161143,554.698714 323.851286,554.333571 323.427429,553.803429 C323.003143,553.273286 322.623857,552.729 322.289143,552.171 C321.954,551.613 321.655286,550.938 321.393429,550.145143 C321.131143,549.353143 321,548.583 321,547.835143 C321,545.379857 321.708429,543.460286 323.126143,542.076 C324.543429,540.692143 326.502,540 329.002286,540 C329.694,540 330.399857,540.120429 331.119857,540.36 C331.839857,540.600429 332.509286,540.924 333.129,541.331143 C333.748286,541.738714 334.281,542.121 334.727571,542.478 C335.173714,542.835 335.598,543.214714 336,543.616286 C336.401571,543.214714 336.825857,542.835 337.272429,542.478 C337.718571,542.121 338.251714,541.738714 338.871,541.331143 C339.490286,540.924 340.160143,540.600429 340.879714,540.36 C341.599714,540.120429 342.305571,540 342.997714,540 C345.497571,540 347.456143,540.692143 348.873857,542.076 C350.291143,543.460286 351,545.379857 351,547.835143 L351,547.835143 Z" id="Fill-1"></path>
        </g>
    </g>
</svg>