<?xml version="1.0" encoding="UTF-8" standalone="no"?>
<svg width="30px" height="30px" viewBox="0 0 30 30" version="1.1" xmlns="http://www.w3.org/2000/svg" xmlns:xlink="http://www.w3.org/1999/xlink">
    <!-- Generator: Sketch 3.6.1 (26313) - http://www.bohemiancoding.com/sketch -->
    <title>Fill 1</title>
    <desc>Created with Sketch.</desc>
    <defs></defs>
    <g id="Page-1" stroke="none" stroke-width="1" fill="none" fill-rule="evenodd">
        <g id="25--Iconografía-2" transform="translate(-47.000000, -292.000000)" fill="#212121">
            <path d="M75.0736372,297.019901 C75.0736372,296.318998 74.6835823,295.600161 73.9064616,294.860402 C73.2444144,294.198355 72.5629393,293.868079 71.8635306,293.868079 C71.0460594,293.868079 70.2868721,294.217783 69.585969,294.918686 L69.4694009,295.035254 C70.4034403,295.464165 71.2597676,296.066434 72.0383828,296.845049 C72.7766475,297.584808 73.3415545,298.460564 73.7316094,299.472315 L73.9064616,299.295968 C74.6835823,298.479992 75.0736372,297.720804 75.0736372,297.019901 M63.3107188,301.193936 L56.859122,307.644039 C54.6024828,309.902172 53.1229644,311.380196 52.4235557,312.0811 C53.4353072,312.51001 54.3499186,313.131707 55.1673898,313.949178 C55.8279425,314.611225 56.3539935,315.409269 56.7425538,316.343308 C64.4091491,308.754425 69.566541,303.635889 72.213235,300.989195 C72.0174603,299.938588 71.5123318,299.004548 70.6948605,298.187077 C69.8385332,297.332244 68.9239219,296.786765 67.9510264,296.553629 C66.9004189,297.604236 65.3536497,299.151006 63.3107188,301.193936 M50.2341674,316.576444 C49.7858285,318.017107 49.464519,319.028858 49.2702388,319.611699 C49.9322859,319.417418 50.9933546,319.067714 52.4519505,318.561091 C53.9120409,318.055963 54.835619,317.74362 55.2256739,317.627052 C54.9521871,316.731868 54.4859147,315.954748 53.8238676,315.292701 C53.0063963,314.436373 52.111213,313.890894 51.1383175,313.657758 C50.9828934,314.164381 50.6810119,315.137276 50.2341674,316.576444 M77,296.961617 C77,298.207999 76.415665,299.433459 75.2484893,300.639491 C74.353306,301.57353 68.1647347,307.702323 56.6842698,319.028858 C56.5677017,319.145426 56.4511336,319.223138 56.3345654,319.261994 C55.0104712,319.650555 52.3249212,320.52631 48.2779153,321.88926 L47.986495,321.88926 C47.7145028,321.88926 47.4798721,321.810054 47.2855919,321.65463 C47.0135996,321.382637 46.9358875,321.050867 47.0524557,320.662306 C48.6081916,315.486981 49.4256629,312.762575 49.5048695,312.490582 C49.542231,312.296302 49.6214376,312.139384 49.7380057,312.022815 L68.2439412,293.575164 C69.2945487,292.524557 70.5005803,292 71.8635306,292 C73.0680678,292 74.1784538,292.487195 75.1902053,293.458596 C76.3573809,294.549554 76.961144,295.71673 77,296.961617" id="Fill-1"></path>
        </g>
    </g>
</svg>