<?xml version="1.0" encoding="UTF-8" standalone="no"?>
<svg width="30px" height="30px" viewBox="0 0 30 30" version="1.1" xmlns="http://www.w3.org/2000/svg" xmlns:xlink="http://www.w3.org/1999/xlink">
    <!-- Generator: Sketch 3.6.1 (26313) - http://www.bohemiancoding.com/sketch -->
    <title>Page 1</title>
    <desc>Created with Sketch.</desc>
    <defs></defs>
    <g id="Page-1" stroke="none" stroke-width="1" fill="none" fill-rule="evenodd">
        <g id="25--Iconografía-2" transform="translate(-47.000000, -656.000000)" fill="#212121">
            <path d="M71.6428571,660.285714 C71.6428571,660.911429 71.4422857,661.424 71.0394286,661.825143 C70.6382857,662.228 70.124,662.428571 69.5,662.428571 C68.8742857,662.428571 68.3617143,662.228 67.9605714,661.825143 C67.5577143,661.424 67.3571429,660.911429 67.3571429,660.285714 L67.3571429,658.142857 C67.3571429,657.518857 67.5577143,657.004571 67.9605714,656.603429 C68.3617143,656.200571 68.8742857,656 69.5,656 C70.124,656 70.6382857,656.200571 71.0394286,656.603429 C71.4422857,657.004571 71.6428571,657.518857 71.6428571,658.142857 L71.6428571,660.285714 Z M56.6428571,660.285714 C56.6428571,660.911429 56.4422857,661.424 56.0394286,661.825143 C55.6382857,662.228 55.124,662.428571 54.5,662.428571 C53.8742857,662.428571 53.3617143,662.228 52.9605714,661.825143 C52.5577143,661.424 52.3571429,660.911429 52.3571429,660.285714 L52.3571429,658.142857 C52.3571429,657.518857 52.5577143,657.004571 52.9605714,656.603429 C53.3617143,656.200571 53.8742857,656 54.5,656 C55.124,656 55.6382857,656.200571 56.0394286,656.603429 C56.4422857,657.004571 56.6428571,657.518857 56.6428571,658.142857 L56.6428571,660.285714 Z M50.2142857,682.785714 L73.7857143,682.785714 L73.7857143,665.642857 L50.2142857,665.642857 L50.2142857,682.785714 Z M76.4651429,658.142857 C76.8217143,658.142857 77,658.321143 77,658.679429 L77,685.465143 C77,685.821714 76.8217143,686 76.4651429,686 L47.5348571,686 C47.1782857,686 47,685.821714 47,685.465143 L47,658.679429 C47,658.321143 47.1782857,658.142857 47.5348571,658.142857 L51.2857143,658.142857 L51.2857143,660.889143 C51.2857143,661.602286 51.6097143,662.217714 52.256,662.730286 C52.904,663.242857 53.6514286,663.5 54.5,663.5 C55.3468571,663.5 56.096,663.242857 56.744,662.730286 C57.3902857,662.217714 57.7142857,661.602286 57.7142857,660.889143 L57.7142857,658.142857 L66.2857143,658.142857 L66.2857143,660.889143 C66.2857143,661.602286 66.62,662.217714 67.2902857,662.730286 C67.9605714,663.242857 68.7182857,663.5 69.5668571,663.5 C70.3708571,663.5 71.096,663.242857 71.744,662.730286 C72.3902857,662.217714 72.7142857,661.602286 72.7142857,660.889143 L72.7142857,658.142857 L76.4651429,658.142857 Z" id="Page-1"></path>
        </g>
    </g>
</svg>