<?xml version="1.0" encoding="UTF-8" standalone="no"?>
<svg width="30px" height="20px" viewBox="0 0 30 20" version="1.1" xmlns="http://www.w3.org/2000/svg" xmlns:xlink="http://www.w3.org/1999/xlink">
    <!-- Generator: Sketch 3.6.1 (26313) - http://www.bohemiancoding.com/sketch -->
    <title>Page 1</title>
    <desc>Created with Sketch.</desc>
    <defs></defs>
    <g id="Page-1" stroke="none" stroke-width="1" fill="none" fill-rule="evenodd">
        <g id="25--Iconografía-2" transform="translate(-322.000000, -418.000000)" fill="#212121">
            <path d="M333.785714,421.214286 L340.214286,421.214286 L340.214286,418 L333.785714,418 L333.785714,421.214286 Z M327.357143,429.317714 L346.642857,429.317714 L346.642857,425.969714 L327.357143,425.969714 L327.357143,429.317714 Z M322,437.285714 L352,437.285714 L352,434.071429 L322,434.071429 L322,437.285714 Z" id="Page-1"></path>
        </g>
    </g>
</svg>