<?xml version="1.0" encoding="UTF-8" standalone="no"?>
<svg width="30px" height="30px" viewBox="0 0 30 30" version="1.1" xmlns="http://www.w3.org/2000/svg" xmlns:xlink="http://www.w3.org/1999/xlink">
    <!-- Generator: Sketch 3.6.1 (26313) - http://www.bohemiancoding.com/sketch -->
    <title>Fill 1</title>
    <desc>Created with Sketch.</desc>
    <defs></defs>
    <g id="Page-1" stroke="none" stroke-width="1" fill="none" fill-rule="evenodd">
        <g id="25--Iconografía-2" transform="translate(-322.000000, -233.000000)" fill="#212121">
            <path d="M342.391,252.0425 C342.547,252.239 342.625,252.4625 342.625,252.716 C342.625,252.971 342.547,253.1945 342.391,253.3895 C341.923,253.82 341.473,253.82 341.044,253.3895 L336.415,248.702 L336.3565,248.702 C336.16,248.507 336.0625,248.273 336.0625,248 L336.0625,238.625 C336.0625,238.352 336.151,238.127 336.3265,237.95 C336.502,237.7745 336.727,237.6875 337,237.6875 C337.273,237.6875 337.498,237.7745 337.6735,237.95 C337.8505,238.127 337.9375,238.352 337.9375,238.625 L337.9375,247.6475 L342.391,252.0425 Z M350.125,248 C350.125,244.367 348.8455,241.271 346.288,238.712 C343.729,236.1545 340.633,234.875 337,234.875 C333.367,234.875 330.271,236.1545 327.7135,238.712 C325.1545,241.271 323.875,244.367 323.875,248 C323.875,251.633 325.1545,254.738 327.7135,257.3165 C330.271,259.8935 333.367,261.1835 337,261.1835 C340.633,261.1835 343.729,259.8935 346.288,257.3165 C348.8455,254.738 350.125,251.633 350.125,248 L350.125,248 Z M352,248 C352,252.14 350.536,255.6755 347.6065,258.605 C344.6755,261.5345 341.14,263 337,263 C332.86,263 329.3245,261.5345 326.395,258.605 C323.4655,255.6755 322,252.14 322,248 C322,243.86 323.4655,240.3245 326.395,237.3935 C329.3245,234.464 332.86,233 337,233 C341.14,233 344.6755,234.464 347.6065,237.3935 C350.536,240.3245 352,243.86 352,248 L352,248 Z" id="Fill-1"></path>
        </g>
    </g>
</svg>