<?xml version="1.0" encoding="UTF-8" standalone="no"?>
<svg width="30px" height="30px" viewBox="0 0 30 30" version="1.1" xmlns="http://www.w3.org/2000/svg" xmlns:xlink="http://www.w3.org/1999/xlink">
    <!-- Generator: Sketch 3.6.1 (26313) - http://www.bohemiancoding.com/sketch -->
    <title>Fill 1</title>
    <desc>Created with Sketch.</desc>
    <defs></defs>
    <g id="Page-1" stroke="none" stroke-width="1" fill="none" fill-rule="evenodd">
        <g id="25--Iconografía-2" transform="translate(-47.000000, -179.000000)" fill="#212121">
            <path d="M76.8424155,180.980807 L63.2072972,208.249575 C62.9664875,208.747347 62.5612223,208.995498 61.99297,208.995498 C61.9224891,208.995498 61.8152994,208.980815 61.6743376,208.952916 C61.3615786,208.882435 61.109022,208.722385 60.9181362,208.474233 C60.7257821,208.224613 60.6303392,207.944158 60.6303392,207.632867 L60.6303392,195.361848 L48.3593201,195.361848 C48.0465611,195.361848 47.7661058,195.264937 47.5164859,195.074051 C47.2683344,194.881697 47.108284,194.629141 47.0378031,194.31785 C46.9673222,194.005091 46.9952209,193.707015 47.1229675,193.422155 C47.2507142,193.138763 47.4562835,192.925852 47.7411438,192.783422 L75.009912,179.148304 C75.1949244,179.049924 75.4004937,179 75.6280883,179 C76.0113282,179 76.331429,179.135088 76.5869222,179.403797 C76.7998333,179.603493 76.9305167,179.848708 76.9804406,180.139441 C77.0303646,180.430175 76.9848457,180.71063 76.8424155,180.980807" id="Fill-1"></path>
        </g>
    </g>
</svg>