<?xml version="1.0" encoding="UTF-8" standalone="no"?>
<svg width="30px" height="27px" viewBox="0 0 30 27" version="1.1" xmlns="http://www.w3.org/2000/svg" xmlns:xlink="http://www.w3.org/1999/xlink">
    <!-- Generator: Sketch 3.6.1 (26313) - http://www.bohemiancoding.com/sketch -->
    <title>valentines-day</title>
    <desc>Created with Sketch.</desc>
    <defs></defs>
    <g id="Page-1" stroke="none" stroke-width="1" fill="none" fill-rule="evenodd">
        <g id="26--Iconografía-3" transform="translate(-322.000000, -597.000000)" fill="#212121">
            <g id="valentines-day" transform="translate(322.000000, 597.000000)">
                <path d="M28.5049237,25.4266376 L1.24183007,25.4266376 C1.24090051,25.4266376 1.24002905,25.4248366 1.24002905,25.4248366 L1.24002905,6.83549746 L28.5067248,6.83549746 L28.5067248,25.4248366 C28.5057952,25.4248366 28.5049237,25.4266376 28.5049237,25.4266376 L28.5049237,25.4266376 Z M1.24183007,3.11726943 L4.95825708,3.11726943 L4.95825708,4.3568337 C4.95825708,4.69908497 5.23514887,4.97638344 5.57734205,4.97638344 C5.91953522,4.97638344 6.19735657,4.69908497 6.19735657,4.3568337 L6.19735657,3.11726943 L11.1546841,3.11726943 L11.1546841,4.3568337 C11.1546841,4.69908497 11.4324473,4.97638344 11.7746986,4.97638344 C12.1169499,4.97638344 12.3947131,4.69908497 12.3947131,4.3568337 L12.3947131,3.11726943 L17.3520407,3.11726943 L17.3520407,4.3568337 C17.3520407,4.69908497 17.6298039,4.97638344 17.9720552,4.97638344 C18.3143065,4.97638344 18.5911402,4.69908497 18.5911402,4.3568337 L18.5911402,3.11726943 L23.5493972,3.11726943 L23.5493972,4.3568337 C23.5493972,4.69908497 23.826289,4.97638344 24.1684822,4.97638344 C24.5106754,4.97638344 24.7884967,4.69908497 24.7884967,4.3568337 L24.7884967,3.11726943 L28.5049237,3.11726943 C28.5049237,3.1177342 28.5058533,3.11860566 28.5067248,3.11953522 L28.5067248,5.59593319 L1.24002905,5.59593319 L1.24002905,3.11953522 C1.24002905,3.11866376 1.24090051,3.1177342 1.24183007,3.11726943 L1.24183007,3.11726943 Z M28.5067248,1.87770516 L24.7884967,1.87770516 L24.7884967,0.638605664 C24.7884967,0.296354394 24.5107335,0.0185911402 24.1684822,0.0185911402 C23.8262309,0.0185911402 23.5493972,0.296354394 23.5493972,0.638605664 L23.5493972,1.87770516 L18.5911402,1.87770516 L18.5911402,0.638605664 C18.5911402,0.296354394 18.3142484,0.0185911402 17.9720552,0.0185911402 C17.629862,0.0185911402 17.3520407,0.296354394 17.3520407,0.638605664 L17.3520407,1.87770516 L12.3947131,1.87770516 L12.3947131,0.638605664 C12.3947131,0.296354394 12.1169499,0.0185911402 11.7746986,0.0185911402 C11.4324473,0.0185911402 11.1546841,0.296354394 11.1546841,0.638605664 L11.1546841,1.87770516 L6.19735657,1.87770516 L6.19735657,0.638605664 C6.19735657,0.296354394 5.91959332,0.0185911402 5.57734205,0.0185911402 C5.23509078,0.0185911402 4.95825708,0.296354394 4.95825708,0.638605664 L4.95825708,1.87770516 L1.24002905,1.87770516 C0.558257081,1.87770516 0,2.43555556 0,3.11726943 L0,25.4266376 C0,26.1083515 0.558257081,26.6666667 1.24002905,26.6666667 L28.5067248,26.6666667 C29.1884386,26.6666667 29.7458243,26.1084096 29.7458243,25.4266376 L29.7458243,3.11726943 C29.7458243,2.43555556 29.1884386,1.87770516 28.5067248,1.87770516 L28.5067248,1.87770516 Z" id="Fill-1"></path>
                <path d="M17.7859695,19.2156863 C16.6748584,20.2396514 15.5474219,21.0366885 14.8729121,21.4814815 C14.1984604,21.0366885 13.0718954,20.2396514 11.9607843,19.2156863 C10.4620479,17.8368046 8.67648511,15.751634 8.67648511,13.6524038 C8.67648511,11.9435294 10.066289,10.5537255 11.7746986,10.5537255 C12.6143791,10.5537255 13.3996224,10.884183 13.9878577,11.4842121 L14.8729121,12.3878577 L15.7588962,11.484154 C16.3462019,10.8841249 17.1323747,10.5536674 17.9720552,10.5536674 C19.6804648,10.5536674 21.0702687,11.9434713 21.0702687,13.6523457 C21.0702687,15.751634 19.2837763,17.8367466 17.7859695,19.2156863 L17.7859695,19.2156863 Z M17.9720552,9.31416122 C16.7574728,9.31416122 15.660886,9.81298475 14.8729121,10.6168192 C14.0858678,9.81298475 12.9883515,9.31416122 11.7746986,9.31416122 C9.37911402,9.31416122 7.43645606,11.2563544 7.43645606,13.6524038 C7.43645606,18.6092665 14.8729121,22.9484386 14.8729121,22.9484386 C14.8729121,22.9484386 22.3093682,18.6092665 22.3093682,13.6524038 C22.3093682,11.2563544 20.3676398,9.31416122 17.9720552,9.31416122 L17.9720552,9.31416122 Z" id="Fill-4"></path>
            </g>
        </g>
    </g>
</svg>