<?xml version="1.0" encoding="UTF-8" standalone="no"?>
<svg width="30px" height="30px" viewBox="0 0 30 30" version="1.1" xmlns="http://www.w3.org/2000/svg" xmlns:xlink="http://www.w3.org/1999/xlink">
    <!-- Generator: Sketch 3.6.1 (26313) - http://www.bohemiancoding.com/sketch -->
    <title>Fill 1</title>
    <desc>Created with Sketch.</desc>
    <defs></defs>
    <g id="Page-1" stroke="none" stroke-width="1" fill="none" fill-rule="evenodd">
        <g id="25--Iconografía-2" transform="translate(-47.000000, -231.000000)" fill="#212121">
            <path d="M75.1228969,235.159189 C75.1228969,234.652227 74.8304188,234.124266 74.2439627,233.576807 C73.7355007,233.108842 73.2480371,232.87486 72.7800721,232.87486 C72.1546189,232.87486 71.5876613,233.128341 71.0806992,233.635303 L58.4246456,246.291356 C58.1906631,247.033801 57.7211983,248.575686 57.0192507,250.92001 C59.3230785,250.177566 60.827466,249.690102 61.5294135,249.45462 L62.1158696,248.869664 C69.693303,241.409222 73.7355007,237.425519 74.2439627,236.917058 C74.867916,236.293104 75.161894,235.706648 75.1228969,235.159189 L75.1228969,235.159189 Z M76.9977567,235.159189 C77.0367538,236.174613 76.5672889,237.190037 75.5908619,238.205461 C75.3178823,238.479941 71.0012052,242.736622 62.6438301,250.978506 C62.5643361,251.0565 62.4668434,251.114996 62.3498521,251.153993 C60.4359952,251.740449 58.2101617,252.463395 55.6708516,253.321331 C55.5928574,253.361828 55.4953647,253.379826 55.3783735,253.379826 C55.1818881,253.379826 55.0064013,253.303332 54.8504129,253.145844 C54.6164304,252.911861 54.5579348,252.638882 54.6749261,252.325405 C55.7293472,248.850165 56.3937975,246.583835 56.6667771,245.529413 C56.7057742,245.373425 56.7837684,245.236935 56.9022595,245.119944 C61.0419499,240.980254 64.1857148,237.845488 66.3350541,235.715647 C68.4828935,233.587307 69.6153088,232.444392 69.7323,232.288404 C70.6307329,231.428968 71.6461569,231 72.7800721,231 C73.7549992,231 74.6729306,231.409469 75.5323663,232.229908 C76.5087933,233.128341 76.9977567,234.104768 76.9977567,235.159189 L76.9977567,235.159189 Z M70.4357474,247.170291 L72.3106072,245.412422 L72.3106072,259.122897 C72.3106072,259.629859 72.1246211,260.069326 71.7541488,260.439798 C71.3821767,260.811771 70.9427095,260.997757 70.4357474,260.997757 L48.8748598,260.997757 C48.3274007,260.997757 47.8789343,260.811771 47.5279605,260.439798 C47.1754869,260.069326 47,259.629859 47,259.122897 L47,235.687149 C47,235.178688 47.1754869,234.73922 47.5279605,234.368748 C47.8789343,233.996776 48.3274007,233.81229 48.8748598,233.81229 L63.8737382,233.81229 L63.9322338,233.870785 L61.9988784,235.687149 L48.8748598,235.687149 L48.8748598,259.122897 L70.4357474,259.122897 L70.4357474,247.170291 Z" id="Fill-1"></path>
        </g>
    </g>
</svg>