<?xml version="1.0" encoding="UTF-8" standalone="no"?>
<svg width="16px" height="28px" viewBox="0 0 16 28" version="1.1" xmlns="http://www.w3.org/2000/svg" xmlns:xlink="http://www.w3.org/1999/xlink">
    <!-- Generator: Sketch 3.6.1 (26313) - http://www.bohemiancoding.com/sketch -->
    <title>Fill 1</title>
    <desc>Created with Sketch.</desc>
    <defs></defs>
    <g id="Page-1" stroke="none" stroke-width="1" fill="none" fill-rule="evenodd">
        <g id="24--Iconografía" transform="translate(-55.000000, -657.000000)" fill="#212121">
            <path d="M65.5469737,670.832211 L55.2475,660.100105 C54.9175,659.771684 54.9175,659.443263 55.2475,659.113263 L57.0964474,657.262737 C57.4675,656.934316 57.7959211,656.913789 58.0832895,657.201158 L70.6659211,670.339579 C70.7890789,670.462737 70.8506579,670.626947 70.8506579,670.832211 C70.8506579,671.039053 70.7890789,671.201684 70.6659211,671.324842 L58.0832895,684.463263 C57.7548684,684.791684 57.4264474,684.791684 57.0964474,684.463263 L55.2475,682.551158 C54.9175,682.222737 54.9175,681.894316 55.2475,681.564316 L65.5469737,670.832211 Z" id="Fill-1"></path>
        </g>
    </g>
</svg>