<?xml version="1.0" encoding="utf-8"?>
<!-- Generator: Adobe Illustrator 16.0.0, SVG Export Plug-In . SVG Version: 6.00 Build 0)  -->
<!DOCTYPE svg PUBLIC "-//W3C//DTD SVG 1.1//EN" "http://www.w3.org/Graphics/SVG/1.1/DTD/svg11.dtd">
<svg version="1.1" id="Layer_1" xmlns="http://www.w3.org/2000/svg" xmlns:xlink="http://www.w3.org/1999/xlink" x="0px" y="0px"
	 width="613.731px" height="141.356px" viewBox="5.286 458.768 613.731 141.356"
	 enable-background="new 5.286 458.768 613.731 141.356" xml:space="preserve">
<g>
	<g>
		<g>
			<path fill="#247EC2" d="M134.854,546.701c5.168,0,9.36-4.416,9.36-9.866l0.197-5.563h-14.177c-0.094,0-0.178,0.039-0.248,0.098
				c0.008,0.104,0.017,0.206,0.017,0.312v15.021L134.854,546.701L134.854,546.701z"/>
			<path fill="#247EC2" d="M126.464,528.141c0.694,0,3.079,0,3.772,0h14.289l0.56-15.598c0-5.448-7.772-11.982-17.256-12.012
				c-9.483-0.029-16.677,6.562-16.677,12.012l0.559,15.598H126.464z"/>
			<path fill="#247EC2" d="M111.824,531.271l0.197,5.562c0,5.45,4.191,9.866,9.36,9.866h5.313v-15.02
				c0-0.104,0.008-0.209,0.017-0.312c-0.069-0.058-0.153-0.097-0.249-0.097H111.824L111.824,531.271z"/>
		</g>
	</g>
	<g>
		<g>
			<path fill="#247EC2" d="M52.821,551.273c-26.211,0-47.535-21.326-47.535-47.541h5.901c0,22.957,18.677,41.637,41.634,41.637
				c22.958,0,41.636-18.68,41.636-41.637h5.9C100.357,529.947,79.033,551.273,52.821,551.273z"/>
		</g>
	</g>
	<g>
		<path fill="#C2B59B" d="M36.593,459.626c-1.9,0-3.442,1.541-3.442,3.442c0,0.006,0.002,0.012,0.002,0.018
			c-15.585,7.391-26.394,23.268-26.394,41.633H9.71c0-17.199,10.135-32.066,24.74-38.978c0.59,0.474,1.329,0.77,2.144,0.77
			c1.901,0,3.442-1.542,3.442-3.442C40.035,461.167,38.494,459.626,36.593,459.626z"/>
		<path fill="#C2B59B" d="M69.372,461.746c-0.229-1.682-1.652-2.979-3.396-2.979c-1.9,0-3.443,1.541-3.443,3.441
			s1.543,3.443,3.443,3.443c0.987,0,1.873-0.422,2.499-1.088c16.054,6.28,27.457,21.906,27.457,40.155h2.951
			C98.883,485.152,86.616,468.407,69.372,461.746z"/>
	</g>
	<path fill="#247EC2" d="M130.376,551.211c-0.192-1.521-1.446-2.618-2.787-2.439c-0.991,0.135-1.901,0.945-2.014,1.949
		c-0.116,1.004,2.296,21.635-9.155,34.576c-5.931,6.701-14.721,10.035-26.195,9.905c-11.285-0.126-20.016-3.653-25.951-10.484
		c-11.77-13.54-9.042-35.856-9.013-36.079l-4.877-0.635c-0.13,1-3.056,24.688,10.16,39.918c6.898,7.951,16.865,12.055,29.624,12.197
		c0.234,0.003,0.465,0.005,0.697,0.005c12.607,0,22.443-3.892,29.238-11.569c6.073-6.863,8.653-15.55,9.668-22.931
		C131.166,557.523,130.376,551.211,130.376,551.211z"/>
</g>
<g enable-background="new    ">
	<path fill="#247EC2" d="M173.852,507.807c3.266,0,6.307,0.521,9.124,1.562c2.815,1.042,5.254,2.604,7.313,4.687
		c2.059,2.084,3.667,4.687,4.828,7.811c1.159,3.124,1.739,6.792,1.739,11.005c0,3.69-0.474,7.1-1.42,10.224
		c-0.947,3.124-2.378,5.822-4.295,8.094c-1.917,2.272-4.308,4.061-7.171,5.361c-2.864,1.303-6.237,1.952-10.117,1.952h-21.868
		v-50.694H173.852z M173.071,549.128c1.609,0,3.171-0.26,4.686-0.78c1.515-0.521,2.863-1.385,4.047-2.592
		c1.182-1.207,2.13-2.779,2.84-4.722c0.71-1.94,1.065-4.308,1.065-7.101c0-2.557-0.249-4.863-0.746-6.923s-1.313-3.821-2.449-5.29
		c-1.136-1.466-2.639-2.591-4.509-3.371c-1.87-0.781-4.178-1.173-6.922-1.173h-7.952v31.95L173.071,549.128L173.071,549.128z"/>
	<path fill="#247EC2" d="M202.749,532.193c0.899-2.389,2.177-4.424,3.834-6.104c1.656-1.68,3.645-2.981,5.964-3.905
		c2.318-0.923,4.922-1.385,7.81-1.385c2.887,0,5.503,0.462,7.846,1.385c2.343,0.924,4.342,2.227,6,3.905
		c1.656,1.681,2.934,3.716,3.834,6.104c0.898,2.392,1.349,5.055,1.349,7.988c0,2.936-0.451,5.586-1.349,7.951
		c-0.9,2.367-2.178,4.393-3.834,6.07c-1.657,1.681-3.657,2.972-6,3.87c-2.343,0.897-4.959,1.349-7.846,1.349
		c-2.888,0-5.491-0.449-7.81-1.349c-2.32-0.898-4.308-2.189-5.964-3.87c-1.657-1.68-2.935-3.703-3.834-6.07
		c-0.899-2.365-1.349-5.017-1.349-7.951C201.4,537.248,201.849,534.585,202.749,532.193z M211.908,544.479
		c0.284,1.396,0.769,2.65,1.456,3.763c0.686,1.112,1.597,2,2.733,2.663c1.136,0.662,2.556,0.994,4.26,0.994s3.135-0.332,4.296-0.994
		c1.159-0.663,2.082-1.551,2.769-2.663c0.686-1.111,1.171-2.366,1.455-3.763s0.426-2.828,0.426-4.297c0-1.466-0.142-2.91-0.426-4.33
		s-0.77-2.674-1.455-3.764c-0.687-1.088-1.61-1.977-2.769-2.662c-1.161-0.686-2.592-1.029-4.296-1.029s-3.124,0.345-4.26,1.029
		c-1.136,0.688-2.048,1.574-2.733,2.662c-0.688,1.09-1.171,2.344-1.456,3.764c-0.284,1.42-0.426,2.864-0.426,4.33
		C211.481,541.648,211.624,543.082,211.908,544.479z"/>
	<path fill="#247EC2" d="M262.459,528.396c-1.61,0-2.959,0.367-4.047,1.1c-1.09,0.734-1.977,1.681-2.663,2.841
		c-0.687,1.16-1.171,2.438-1.456,3.834c-0.284,1.396-0.426,2.781-0.426,4.153c0,1.324,0.142,2.675,0.426,4.047
		c0.284,1.373,0.746,2.615,1.384,3.729c0.639,1.111,1.502,2.022,2.592,2.732c1.088,0.71,2.414,1.064,3.976,1.064
		c2.414,0,4.271-0.674,5.573-2.023c1.301-1.35,2.118-3.159,2.45-5.432h9.727c-0.664,4.875-2.556,8.592-5.68,11.146
		s-7.125,3.834-11.999,3.834c-2.746,0-5.266-0.461-7.562-1.385c-2.296-0.923-4.249-2.212-5.857-3.869
		c-1.61-1.656-2.864-3.632-3.763-5.929c-0.899-2.296-1.349-4.815-1.349-7.562c0-2.84,0.414-5.478,1.242-7.916
		c0.828-2.438,2.047-4.544,3.657-6.319c1.608-1.773,3.573-3.158,5.893-4.152c2.318-0.994,4.97-1.491,7.952-1.491
		c2.177,0,4.271,0.284,6.284,0.853c2.011,0.567,3.81,1.433,5.396,2.592c1.585,1.16,2.875,2.604,3.87,4.331
		c0.994,1.729,1.562,3.774,1.704,6.142h-9.869C269.251,530.503,266.766,528.396,262.459,528.396z"/>
	<path fill="#247EC2" d="M304.846,521.793v6.745h-7.384v18.176c0,1.704,0.284,2.841,0.852,3.408s1.704,0.853,3.408,0.853
		c0.568,0,1.111-0.022,1.633-0.07c0.521-0.047,1.018-0.118,1.491-0.213v7.81c-0.852,0.142-1.799,0.235-2.84,0.284
		c-1.042,0.047-2.059,0.07-3.053,0.07c-1.562,0-3.042-0.106-4.438-0.319s-2.627-0.626-3.692-1.242
		c-1.065-0.614-1.906-1.491-2.521-2.627c-0.616-1.136-0.923-2.627-0.923-4.474v-21.655h-6.106v-6.745h6.106v-11.005h10.082v11.005
		H304.846z"/>
	<path fill="#247EC2" d="M308.892,532.193c0.899-2.389,2.177-4.424,3.834-6.104c1.656-1.68,3.645-2.981,5.964-3.905
		c2.318-0.923,4.923-1.385,7.81-1.385s5.504,0.462,7.847,1.385c2.344,0.924,4.342,2.227,6,3.905
		c1.655,1.681,2.934,3.716,3.834,6.104c0.897,2.392,1.35,5.055,1.35,7.988c0,2.936-0.451,5.586-1.35,7.951
		c-0.9,2.367-2.179,4.393-3.834,6.07c-1.658,1.681-3.656,2.972-6,3.87c-2.343,0.897-4.96,1.349-7.847,1.349s-5.49-0.449-7.81-1.349
		c-2.319-0.898-4.309-2.189-5.964-3.87c-1.657-1.68-2.935-3.703-3.834-6.07c-0.899-2.365-1.349-5.017-1.349-7.951
		C307.543,537.248,307.992,534.585,308.892,532.193z M318.051,544.479c0.284,1.396,0.769,2.65,1.456,3.763
		c0.686,1.112,1.598,2,2.732,2.663c1.137,0.662,2.557,0.994,4.26,0.994c1.705,0,3.136-0.332,4.297-0.994
		c1.158-0.663,2.082-1.551,2.77-2.663c0.686-1.111,1.17-2.366,1.455-3.763c0.283-1.396,0.427-2.828,0.427-4.297
		c0-1.466-0.144-2.91-0.427-4.33c-0.285-1.42-0.771-2.674-1.455-3.764c-0.688-1.088-1.61-1.977-2.77-2.662
		c-1.161-0.686-2.592-1.029-4.297-1.029c-1.703,0-3.123,0.345-4.26,1.029c-1.137,0.688-2.047,1.574-2.732,2.662
		c-0.688,1.09-1.172,2.344-1.456,3.764s-0.427,2.864-0.427,4.33C317.624,541.648,317.767,543.082,318.051,544.479z"/>
	<path fill="#247EC2" d="M360.649,521.793v6.816h0.143c0.473-1.137,1.111-2.189,1.918-3.16c0.805-0.971,1.727-1.799,2.77-2.484
		c1.039-0.686,2.152-1.219,3.336-1.598s2.414-0.568,3.691-0.568c0.663,0,1.396,0.119,2.201,0.355v9.371
		c-0.473-0.094-1.041-0.178-1.703-0.248c-0.664-0.071-1.303-0.106-1.918-0.106c-1.846,0-3.406,0.31-4.686,0.923
		c-1.277,0.616-2.309,1.456-3.088,2.521c-0.781,1.064-1.338,2.308-1.67,3.728c-0.332,1.421-0.496,2.959-0.496,4.615V558.5h-10.082
		v-36.707H360.649z"/>
</g>
<g enable-background="new    ">
	<path fill="#8CC63F" d="M398.919,507.807l18.957,50.693h-11.572l-3.834-11.289h-18.957l-3.977,11.289h-11.219l19.171-50.693
		H398.919z M399.558,538.904l-6.39-18.604h-0.142l-6.604,18.604H399.558z"/>
	<path fill="#8CC63F" d="M446.276,553.814c-1.185,1.986-2.734,3.42-4.65,4.295c-1.918,0.875-4.083,1.312-6.497,1.312
		c-2.745,0-5.159-0.531-7.242-1.598c-2.083-1.064-3.798-2.508-5.146-4.331c-1.351-1.821-2.367-3.916-3.053-6.283
		c-0.688-2.366-1.029-4.828-1.029-7.384c0-2.461,0.342-4.84,1.029-7.137c0.686-2.295,1.702-4.317,3.053-6.069
		c1.35-1.751,3.041-3.159,5.076-4.226c2.034-1.065,4.401-1.598,7.1-1.598c2.178,0,4.248,0.462,6.213,1.385
		c1.964,0.924,3.516,2.284,4.65,4.082h0.143v-18.459h10.082V558.5h-9.585v-4.686H446.276z M445.85,535.674
		c-0.283-1.396-0.77-2.627-1.455-3.691c-0.687-1.065-1.574-1.928-2.662-2.592c-1.09-0.662-2.461-0.994-4.117-0.994
		c-1.658,0-3.055,0.332-4.189,0.994c-1.137,0.664-2.048,1.539-2.732,2.627c-0.688,1.09-1.186,2.332-1.491,3.728
		c-0.31,1.397-0.461,2.853-0.461,4.366c0,1.421,0.165,2.841,0.496,4.261s0.862,2.687,1.598,3.799
		c0.733,1.112,1.656,2.013,2.771,2.697c1.11,0.688,2.448,1.03,4.012,1.03c1.656,0,3.041-0.332,4.152-0.994
		c1.111-0.663,2-1.551,2.662-2.663c0.663-1.111,1.137-2.378,1.42-3.798c0.284-1.42,0.428-2.887,0.428-4.402
		C446.276,538.525,446.134,537.07,445.85,535.674z"/>
	<path fill="#8CC63F" d="M471.693,558.5l-12.567-36.707h10.58l7.738,25.062h0.143l7.738-25.062h10.012L482.911,558.5H471.693z"/>
	<path fill="#8CC63F" d="M498.815,516.113v-8.309h10.081v8.309H498.815z M508.896,521.793V558.5h-10.081v-36.707H508.896z"/>
	<path fill="#8CC63F" d="M524.339,549.377c0.449,0.78,1.029,1.42,1.74,1.917c0.709,0.496,1.524,0.863,2.449,1.101
		c0.923,0.237,1.881,0.354,2.875,0.354c0.71,0,1.455-0.082,2.235-0.248c0.781-0.166,1.491-0.427,2.131-0.781s1.172-0.827,1.599-1.42
		c0.426-0.592,0.639-1.337,0.639-2.235c0-1.516-1.006-2.65-3.018-3.408c-2.014-0.758-4.817-1.516-8.414-2.272
		c-1.467-0.329-2.899-0.721-4.295-1.171c-1.396-0.449-2.641-1.041-3.729-1.775c-1.09-0.732-1.965-1.655-2.628-2.769
		c-0.662-1.112-0.993-2.474-0.993-4.083c0-2.365,0.462-4.307,1.384-5.822c0.925-1.514,2.143-2.709,3.657-3.584
		c1.516-0.877,3.218-1.492,5.112-1.848c1.893-0.354,3.834-0.532,5.822-0.532c1.986,0,3.916,0.189,5.785,0.568
		s3.538,1.019,5.006,1.917c1.467,0.898,2.686,2.095,3.655,3.585c0.972,1.491,1.552,3.373,1.74,5.646h-9.586
		c-0.141-1.94-0.875-3.255-2.2-3.94c-1.325-0.687-2.888-1.029-4.687-1.029c-0.567,0-1.185,0.035-1.847,0.106
		c-0.662,0.07-1.267,0.226-1.811,0.462c-0.545,0.237-1.006,0.579-1.385,1.028c-0.379,0.45-0.567,1.055-0.567,1.812
		c0,0.899,0.331,1.633,0.993,2.201c0.663,0.567,1.527,1.028,2.592,1.384c1.065,0.355,2.283,0.675,3.656,0.959
		s2.77,0.593,4.188,0.923c1.468,0.332,2.898,0.734,4.297,1.207c1.396,0.474,2.638,1.101,3.728,1.882
		c1.088,0.78,1.963,1.751,2.627,2.911c0.662,1.16,0.994,2.591,0.994,4.295c0,2.414-0.486,4.438-1.456,6.07
		c-0.971,1.634-2.236,2.946-3.798,3.94c-1.562,0.993-3.35,1.692-5.361,2.094c-2.011,0.402-4.059,0.604-6.141,0.604
		c-2.131,0-4.214-0.213-6.248-0.639c-2.036-0.427-3.847-1.136-5.432-2.13c-1.588-0.994-2.89-2.309-3.905-3.94
		c-1.02-1.634-1.574-3.68-1.669-6.142h9.586C523.665,547.661,523.889,548.596,524.339,549.377z"/>
	<path fill="#8CC63F" d="M553.199,532.193c0.898-2.389,2.177-4.424,3.834-6.104c1.656-1.68,3.645-2.981,5.964-3.905
		c2.317-0.923,4.922-1.385,7.811-1.385c2.888,0,5.502,0.462,7.847,1.385c2.342,0.924,4.342,2.227,5.999,3.905
		c1.655,1.681,2.935,3.716,3.834,6.104c0.897,2.392,1.349,5.055,1.349,7.988c0,2.936-0.45,5.586-1.349,7.951
		c-0.899,2.367-2.179,4.393-3.834,6.07c-1.657,1.681-3.657,2.972-5.999,3.87c-2.345,0.897-4.959,1.349-7.847,1.349
		c-2.889,0-5.491-0.449-7.811-1.349c-2.319-0.898-4.308-2.189-5.964-3.87c-1.657-1.68-2.936-3.703-3.834-6.07
		c-0.899-2.365-1.35-5.017-1.35-7.951C551.851,537.248,552.3,534.585,553.199,532.193z M562.358,544.479
		c0.283,1.396,0.769,2.65,1.454,3.763c0.687,1.112,1.599,2,2.734,2.663c1.135,0.662,2.557,0.994,4.26,0.994s3.136-0.332,4.295-0.994
		c1.16-0.663,2.082-1.551,2.771-2.663c0.686-1.111,1.172-2.366,1.455-3.763c0.284-1.396,0.426-2.828,0.426-4.297
		c0-1.466-0.142-2.91-0.426-4.33c-0.283-1.42-0.771-2.674-1.455-3.764c-0.688-1.088-1.609-1.977-2.771-2.662
		c-1.159-0.686-2.592-1.029-4.295-1.029s-3.125,0.345-4.26,1.029c-1.137,0.688-2.049,1.574-2.734,2.662
		c-0.687,1.09-1.171,2.344-1.454,3.764c-0.284,1.42-0.427,2.864-0.427,4.33C561.933,541.648,562.074,543.082,562.358,544.479z"/>
	<path fill="#8CC63F" d="M604.958,521.793v6.816h0.144c0.473-1.137,1.11-2.189,1.916-3.16c0.805-0.971,1.728-1.799,2.77-2.484
		c1.041-0.686,2.153-1.219,3.337-1.598c1.183-0.379,2.414-0.568,3.692-0.568c0.662,0,1.395,0.119,2.201,0.355v9.371
		c-0.476-0.094-1.044-0.178-1.705-0.248c-0.664-0.071-1.303-0.106-1.916-0.106c-1.848,0-3.408,0.31-4.688,0.923
		c-1.278,0.616-2.308,1.456-3.089,2.521c-0.781,1.064-1.338,2.308-1.668,3.728c-0.332,1.421-0.497,2.959-0.497,4.615V558.5h-10.082
		v-36.707H604.958z"/>
</g>
<g>
	<path fill="#287EC1" d="M169.577,575.424c-0.957-4.203-3.553-5.809-7.754-5.809c-5.944,0-8.507,5.092-8.507,10.898
		c0,5.501,2.016,11.034,8.712,11.034c4.236,0,6.867-2.869,7.788-6.763h2.425c-1.092,4.748-4.064,8.743-10.658,8.743
		c-7.585,0-10.591-5.979-10.591-12.946c0-9.396,4.919-12.947,11.446-12.947c5.054,0,8.745,2.7,9.53,7.789H169.577z"/>
	<path fill="#287EC1" d="M174.63,584.032c0-5.157,2.732-9.325,8.199-9.325c5.534,0,8.2,4.134,8.2,9.325
		c0,5.603-3.246,9.327-8.2,9.327C178.319,593.291,174.63,590.216,174.63,584.032 M182.829,576.55c-4.304,0-6.012,3.656-6.012,7.482
		c0,4.409,2.083,7.481,6.012,7.481c4.305,0,6.013-3.688,6.013-7.481C188.807,579.865,187.168,576.55,182.829,576.55"/>
	<path fill="#287EC1" d="M196.151,592.882h-2.05v-17.697h2.05v2.46c1.64-1.743,3.246-2.938,5.706-2.938
		c2.151,0,4.135,0.684,5.397,2.528c0.854,1.262,0.887,2.596,0.887,4.063v11.583h-2.048v-11.547c0-3.177-1.298-4.785-4.579-4.785
		c-2.528,0-4.27,1.64-4.919,3.451c-0.411,1.128-0.444,2.118-0.444,3.349V592.882z"/>
	<path fill="#287EC1" d="M214.461,592.882h-2.05v-17.697h2.05v2.46c1.64-1.743,3.246-2.938,5.706-2.938
		c2.151,0,4.135,0.684,5.397,2.528c0.854,1.262,0.887,2.596,0.887,4.063v11.583h-2.048v-11.547c0-3.177-1.298-4.785-4.579-4.785
		c-2.528,0-4.27,1.64-4.919,3.451c-0.411,1.128-0.444,2.118-0.444,3.349V592.882z"/>
	<path fill="#287EC1" d="M231.986,584.512c-0.034,3.825,2.016,7.002,5.943,7.002c2.666,0,4.75-1.467,5.365-4.065h2.288
		c-1.023,3.349-3.142,5.911-7.653,5.911c-5.67,0-8.129-4.032-8.129-9.257c0-5.16,3.074-9.396,8.129-9.396
		c4.853,0,7.825,3.451,7.791,9.805H231.986z M243.533,582.802c0-3.45-1.913-6.252-5.604-6.252c-3.621,0-5.534,2.906-5.943,6.252
		H243.533z"/>
	<path fill="#287EC1" d="M261.569,580.754c-0.718-2.63-2.527-4.204-5.261-4.204c-4.201,0-5.944,3.826-5.944,7.519
		c0,3.722,1.708,7.445,5.944,7.445c3.041,0,4.954-1.809,5.433-4.748h2.185c-0.716,3.93-3.176,6.594-7.618,6.594
		c-5.637,0-8.13-4.065-8.13-9.291c0-4.92,2.834-9.361,8.13-9.361c4.066,0,6.731,1.944,7.346,6.047H261.569z"/>
	<path fill="#287EC1" d="M273.559,592.95c-0.478,0.102-1.367,0.409-2.357,0.409c-2.015,0-3.143-0.889-3.143-3.519v-12.947h-2.494
		v-1.709h2.494v-4.92h2.05v4.92h3.313v1.709h-3.313v12.126c0,1.741,0.069,2.494,1.776,2.494c0.547,0,1.128-0.102,1.674-0.239V592.95
		z"/>
	<path fill="#287EC1" d="M276.36,568.283h2.255v3.042h-2.255V568.283z M276.462,575.185h2.05v17.695h-2.05V575.185z"/>
	<path fill="#287EC1" d="M285.105,592.882h-2.051v-17.697h2.051v2.46c1.639-1.743,3.245-2.938,5.705-2.938
		c2.152,0,4.134,0.684,5.397,2.528c0.855,1.262,0.889,2.596,0.889,4.063v11.583h-2.049v-11.547c0-3.177-1.298-4.785-4.579-4.785
		c-2.526,0-4.27,1.64-4.919,3.451c-0.41,1.128-0.443,2.118-0.443,3.349V592.882z"/>
	<path fill="#287EC1" d="M315.03,575.185h2.05v15.988c0,4.748-1.571,8.951-8.303,8.951c-5.193,0-7.345-2.974-7.481-5.092h2.187
		c0.615,2.666,2.869,3.247,5.294,3.247c5.603,0,6.354-4.167,6.253-8.232c-1.299,2.152-3.827,3.312-6.321,3.312
		c-5.397,0-7.892-4.407-7.892-9.361c0-5.226,2.291-9.291,7.995-9.291c2.254,0,4.953,1.262,6.149,3.587h0.069V575.185z
		 M309.051,576.55c-3.451,0-6.014,2.494-6.046,6.938c-0.171,4.44,1.81,8.026,6.046,8.026c3.724,0,5.979-3.416,5.979-7.411
		C315.03,579.831,312.912,576.55,309.051,576.55"/>
	<path fill="#287EC1" d="M332.142,592.882h-2.05v-17.697h2.05v2.666h0.069c1.06-2.018,3.177-3.144,5.466-3.144
		c3.279,0,4.44,1.535,5.192,3.417c1.162-2.291,3.245-3.417,5.774-3.417c4.816,0,5.5,3.451,5.5,7.001v11.174h-2.05v-12.23
		c0-2.527-0.889-4.102-3.792-4.102c-1.504,0-2.973,0.651-3.998,2.018c-0.887,1.162-1.16,3.314-1.16,4.782v9.532h-2.05v-12.23
		c0-2.527-0.889-4.102-3.793-4.102c-1.503,0-2.973,0.651-3.998,2.018c-0.888,1.162-1.161,3.314-1.161,4.782V592.882z"/>
	<path fill="#287EC1" d="M359.402,584.512c-0.035,3.825,2.016,7.002,5.944,7.002c2.665,0,4.748-1.467,5.363-4.065h2.289
		c-1.025,3.349-3.143,5.911-7.652,5.911c-5.672,0-8.131-4.032-8.131-9.257c0-5.16,3.074-9.396,8.131-9.396
		c4.852,0,7.823,3.451,7.789,9.805H359.402z M370.949,582.802c0-3.45-1.914-6.252-5.603-6.252c-3.622,0-5.535,2.906-5.944,6.252
		H370.949z"/>
	<path fill="#287EC1" d="M390.113,568.283h2.05v24.599h-2.05v-3.108h-0.067c-1.196,2.321-3.896,3.586-6.15,3.586
		c-5.705,0-7.994-4.065-7.994-9.293c0-4.954,2.494-9.359,7.893-9.359c2.494,0,5.021,1.16,6.319,3.312V568.283z M384.135,576.55
		c-4.236,0-6.218,3.589-6.047,8.029c0.034,4.44,2.597,6.935,6.047,6.935c3.86,0,5.979-3.278,5.979-7.55
		C390.113,579.967,387.859,576.55,384.135,576.55"/>
	<path fill="#287EC1" d="M396.841,568.283h2.256v3.042h-2.256V568.283z M396.944,575.185h2.049v17.695h-2.049V575.185z"/>
	<path fill="#287EC1" d="M416.073,580.754c-0.717-2.63-2.527-4.204-5.26-4.204c-4.202,0-5.944,3.826-5.944,7.519
		c0,3.722,1.707,7.445,5.944,7.445c3.04,0,4.952-1.809,5.431-4.748h2.187c-0.717,3.93-3.177,6.594-7.617,6.594
		c-5.637,0-8.131-4.065-8.131-9.291c0-4.92,2.835-9.361,8.131-9.361c4.065,0,6.729,1.944,7.345,6.047H416.073z"/>
	<path fill="#287EC1" d="M429.977,582.564c0.752-0.067,2.016-0.273,2.699-0.581s0.751-1.229,0.751-1.845
		c0-2.085-1.229-3.589-4.406-3.589c-2.836,0-4.783,0.923-5.158,3.998h-2.084c0.308-4.167,3.415-5.841,7.276-5.841
		c3.587,0,6.422,1.4,6.422,5.499v9.635c0,1.605,0.411,1.98,2.153,1.365v1.605c-0.308,0.102-1.025,0.344-1.605,0.344
		c-0.342,0-0.615-0.036-0.923-0.104c-1.367-0.204-1.605-1.399-1.641-2.63c-1.708,1.913-4.03,2.938-6.593,2.938
		c-3.109,0-5.911-1.676-5.911-5.093c0-2.971,2.05-4.779,6.185-5.326L429.977,582.564z M433.427,583.589
		c-1.742,0.717-3.518,0.853-5.295,0.99c-3.109,0.237-4.988,1.366-4.988,3.758c0,2.152,1.879,3.177,3.827,3.177
		c3.246,0,6.456-1.571,6.456-5.159V583.589z"/>
	<rect x="440.462" y="568.283" fill="#287EC1" width="2.05" height="24.599"/>
	<path fill="#287EC1" d="M456.074,568.283h2.253v3.042h-2.253V568.283z M456.176,575.185h2.051v17.695h-2.051V575.185z"/>
	<path fill="#287EC1" d="M464.818,592.882h-2.05v-17.697h2.05v2.46c1.641-1.743,3.246-2.938,5.706-2.938
		c2.151,0,4.133,0.684,5.397,2.528c0.854,1.262,0.889,2.596,0.889,4.063v11.583h-2.05v-11.547c0-3.177-1.299-4.785-4.579-4.785
		c-2.527,0-4.27,1.64-4.919,3.451c-0.41,1.128-0.444,2.118-0.444,3.349V592.882z"/>
	<path fill="#287EC1" d="M487.296,592.95c-0.479,0.102-1.365,0.409-2.357,0.409c-2.016,0-3.144-0.889-3.144-3.519v-12.947h-2.493
		v-1.709h2.493v-4.92h2.051v4.92h3.313v1.709h-3.313v12.126c0,1.741,0.067,2.494,1.777,2.494c0.546,0,1.127-0.102,1.673-0.239
		V592.95z"/>
	<path fill="#287EC1" d="M491.156,584.512c-0.034,3.825,2.017,7.002,5.943,7.002c2.666,0,4.75-1.467,5.364-4.065h2.29
		c-1.025,3.349-3.144,5.911-7.654,5.911c-5.671,0-8.13-4.032-8.13-9.257c0-5.16,3.074-9.396,8.13-9.396
		c4.853,0,7.825,3.451,7.791,9.805H491.156z M502.704,582.802c0-3.45-1.914-6.252-5.604-6.252c-3.621,0-5.534,2.906-5.943,6.252
		H502.704z"/>
	<rect x="508.509" y="568.283" fill="#287EC1" width="2.05" height="24.599"/>
	<rect x="515.409" y="568.283" fill="#287EC1" width="2.049" height="24.599"/>
	<path fill="#287EC1" d="M522.206,568.283h2.255v3.042h-2.255V568.283z M522.309,575.185h2.051v17.695h-2.051V575.185z"/>
	<path fill="#287EC1" d="M542.566,575.185h2.05v15.988c0,4.748-1.571,8.951-8.302,8.951c-5.192,0-7.347-2.974-7.481-5.092h2.186
		c0.615,2.666,2.87,3.247,5.296,3.247c5.603,0,6.354-4.167,6.252-8.232c-1.298,2.152-3.826,3.312-6.319,3.312
		c-5.398,0-7.893-4.407-7.893-9.361c0-5.226,2.289-9.291,7.994-9.291c2.255,0,4.954,1.262,6.15,3.587h0.067V575.185z
		 M536.588,576.55c-3.45,0-6.013,2.494-6.047,6.938c-0.171,4.44,1.811,8.026,6.047,8.026c3.725,0,5.979-3.416,5.979-7.411
		C542.566,579.831,540.448,576.55,536.588,576.55"/>
	<path fill="#287EC1" d="M550.354,584.512c-0.034,3.825,2.016,7.002,5.943,7.002c2.665,0,4.75-1.467,5.365-4.065h2.288
		c-1.024,3.349-3.143,5.911-7.653,5.911c-5.67,0-8.13-4.032-8.13-9.257c0-5.16,3.075-9.396,8.13-9.396
		c4.853,0,7.824,3.451,7.79,9.805H550.354z M561.9,582.802c0-3.45-1.913-6.252-5.604-6.252c-3.62,0-5.533,2.906-5.943,6.252H561.9z"
		/>
	<path fill="#287EC1" d="M569.449,592.882h-2.05v-17.697h2.05v2.46c1.641-1.743,3.246-2.938,5.707-2.938
		c2.15,0,4.134,0.684,5.396,2.528c0.856,1.262,0.889,2.596,0.889,4.063v11.583h-2.049v-11.547c0-3.177-1.3-4.785-4.579-4.785
		c-2.528,0-4.271,1.64-4.919,3.451c-0.41,1.128-0.444,2.118-0.444,3.349V592.882z"/>
	<path fill="#287EC1" d="M598.247,580.754c-0.717-2.63-2.527-4.204-5.26-4.204c-4.202,0-5.944,3.826-5.944,7.519
		c0,3.722,1.707,7.445,5.944,7.445c3.04,0,4.952-1.809,5.431-4.748h2.187c-0.717,3.93-3.177,6.594-7.617,6.594
		c-5.637,0-8.131-4.065-8.131-9.291c0-4.92,2.835-9.361,8.131-9.361c4.065,0,6.73,1.944,7.345,6.047H598.247z"/>
	<path fill="#287EC1" d="M605.284,584.512c-0.035,3.825,2.016,7.002,5.942,7.002c2.666,0,4.75-1.467,5.364-4.065h2.29
		c-1.025,3.349-3.144,5.911-7.654,5.911c-5.671,0-8.129-4.032-8.129-9.257c0-5.16,3.073-9.396,8.129-9.396
		c4.853,0,7.825,3.451,7.791,9.805H605.284z M616.831,582.802c0-3.45-1.914-6.252-5.604-6.252c-3.621,0-5.534,2.906-5.942,6.252
		H616.831z"/>
</g>
</svg>
