<?xml version="1.0" encoding="utf-8"?>
<!-- Generator: Adobe Illustrator 16.0.0, SVG Export Plug-In . SVG Version: 6.00 Build 0)  -->
<!DOCTYPE svg PUBLIC "-//W3C//DTD SVG 1.1//EN" "http://www.w3.org/Graphics/SVG/1.1/DTD/svg11.dtd">
<svg version="1.1" id="Layer_1" xmlns="http://www.w3.org/2000/svg" xmlns:xlink="http://www.w3.org/1999/xlink" x="0px" y="0px"
	 width="42px" height="26px" viewBox="0 0 42 26" enable-background="new 0 0 42 26" xml:space="preserve">
<g>
	<path fill="#257EC2" d="M21.001,26c-1.283,0-2.446-0.49-3.366-1.42l-2.3-2.207c-0.981-0.943-1.02-2.508-0.086-3.5
		c0.936-0.988,2.487-1.027,3.469-0.084l2.28,2.188L36.887,4.949H5.115l7.022,7.086c0.958,0.966,0.958,2.533,0,3.5
		c-0.957,0.967-2.512,0.967-3.47,0L1.406,8.208C0.486,7.28,0,6.106,0,4.814c0-1.291,0.485-2.463,1.404-3.393
		C2.328,0.49,3.491,0,4.771,0H37.23c1.279,0,2.443,0.49,3.363,1.42C41.514,2.348,42,3.521,42,4.814c0,1.296-0.488,2.47-1.408,3.396
		L24.365,24.582C23.445,25.51,22.281,26,21.001,26z"/>
</g>
</svg>
