<?xml version="1.0" encoding="utf-8"?>
<!-- Generator: Adobe Illustrator 16.0.0, SVG Export Plug-In . SVG Version: 6.00 Build 0)  -->
<!DOCTYPE svg PUBLIC "-//W3C//DTD SVG 1.1//EN" "http://www.w3.org/Graphics/SVG/1.1/DTD/svg11.dtd">
<svg version="1.1" id="Layer_1" xmlns="http://www.w3.org/2000/svg" xmlns:xlink="http://www.w3.org/1999/xlink" x="0px" y="0px"
	 width="24.917px" height="40px" viewBox="0 0 24.917 40" enable-background="new 0 0 24.917 40" xml:space="preserve">
<g>
	<path fill="#247EC2" d="M20.188,39.939c-1.212,0-2.317-0.46-3.199-1.333L1.58,23.19C0.708,22.321,0.245,21.216,0.245,20
		c0-1.218,0.462-2.32,1.335-3.196l2.08-2.185l6.449-6.342l6.879-6.882c0.882-0.875,1.987-1.336,3.199-1.336
		c1.216,0,2.321,0.461,3.198,1.334C24.26,2.27,24.72,3.376,24.72,4.59v7.006c0,1.287-1.043,2.329-2.329,2.329
		c-1.287,0-2.329-1.042-2.329-2.329V4.913l-6.671,6.673l-6.411,6.3l-2.005,2.11l15.087,15.085v-6.11
		c0-1.287,1.042-2.333,2.329-2.333c1.286,0,2.329,1.046,2.329,2.333v6.44c0,1.212-0.46,2.321-1.33,3.195
		C22.509,39.479,21.403,39.939,20.188,39.939z"/>
</g>
</svg>
