<?xml version="1.0" encoding="utf-8"?>
<!-- Generator: Adobe Illustrator 16.0.0, SVG Export Plug-In . SVG Version: 6.00 Build 0)  -->
<!DOCTYPE svg PUBLIC "-//W3C//DTD SVG 1.1//EN" "http://www.w3.org/Graphics/SVG/1.1/DTD/svg11.dtd">
<svg version="1.1" id="Layer_1" xmlns="http://www.w3.org/2000/svg" xmlns:xlink="http://www.w3.org/1999/xlink" x="0px" y="0px"
	 width="30px" height="30.001px" viewBox="0 0 30 30.001" enable-background="new 0 0 30 30.001" xml:space="preserve">
<path fill="#8bc53d" d="M15,30.001c-2.705,0-5.24-0.678-7.532-2.018c-0.861-0.502-1.152-1.607-0.65-2.469
	c0.503-0.859,1.607-1.152,2.47-0.65C11.045,25.89,12.914,26.39,15,26.39s3.955-0.5,5.713-1.525c1.766-1.027,3.123-2.385,4.152-4.15
	c1.025-1.758,1.523-3.625,1.523-5.714c0-2.087-0.498-3.956-1.523-5.713c-1.029-1.764-2.387-3.122-4.152-4.152
	C18.957,4.11,17.088,3.611,15,3.611c-2.087,0-3.956,0.498-5.713,1.523c-1.765,1.03-3.123,2.389-4.152,4.152
	C4.109,11.044,3.611,12.913,3.611,15c0,1.098,0.145,2.161,0.43,3.163c0.273,0.959-0.282,1.959-1.241,2.23
	c-0.961,0.271-1.958-0.281-2.231-1.242C0.191,17.829,0,16.433,0,15c0-2.706,0.678-5.24,2.016-7.532
	C3.348,5.184,5.183,3.35,7.467,2.017C9.759,0.679,12.293,0,15,0c2.705,0,5.24,0.679,7.533,2.016
	c2.285,1.335,4.119,3.169,5.451,5.452C29.322,9.76,30,12.294,30,15c0,2.708-0.678,5.241-2.016,7.534
	c-1.332,2.285-3.168,4.117-5.451,5.449C20.24,29.323,17.705,30.001,15,30.001z"/>
</svg>
