<?xml version="1.0" encoding="utf-8"?>
<!-- Generator: Adobe Illustrator 16.0.0, SVG Export Plug-In . SVG Version: 6.00 Build 0)  -->
<!DOCTYPE svg PUBLIC "-//W3C//DTD SVG 1.1//EN" "http://www.w3.org/Graphics/SVG/1.1/DTD/svg11.dtd">
<svg version="1.1" id="Layer_1" xmlns="http://www.w3.org/2000/svg" xmlns:xlink="http://www.w3.org/1999/xlink" x="0px" y="0px"
	 width="54px" height="51.857px" viewBox="0 0 54 51.857" enable-background="new 0 0 54 51.857" xml:space="preserve">
<g>
	<path fill="#FFFFFF" d="M3.543,25.929c0-12.955,10.502-23.457,23.458-23.457c12.954,0,23.456,10.502,23.456,23.457
		c0,12.953-10.502,23.457-23.456,23.457c-9.021,0-16.854-5.089-20.775-12.558"/>
	<path fill="#143D67" d="M27.001,51.732c-9.621,0-18.377-5.293-22.853-13.813c-0.603-1.146-0.161-2.565,0.985-3.168
		c1.147-0.602,2.566-0.161,3.17,0.985c3.66,6.972,10.826,11.303,18.697,11.303c11.64,0,21.109-9.47,21.109-21.11
		c0-11.641-9.47-21.111-21.109-21.111c-11.641,0-21.111,9.47-21.111,21.111c0,1.296-1.051,2.346-2.347,2.346
		s-2.347-1.05-2.347-2.346c0-14.229,11.576-25.804,25.805-25.804c14.228,0,25.803,11.576,25.803,25.804
		C52.804,40.158,41.229,51.732,27.001,51.732z"/>
	<g>
		<path fill="#143D67" d="M25.892,36.375c-0.575,0-1.105-0.026-1.592-0.073c-0.487-0.05-0.963-0.124-1.43-0.226
			c-0.466-0.098-0.928-0.228-1.383-0.385c-0.457-0.16-0.953-0.349-1.489-0.565c0.08-0.715,0.214-1.438,0.402-2.172
			c0.188-0.735,0.421-1.519,0.7-2.354c0.932,0.398,1.775,0.691,2.529,0.88c0.754,0.188,1.478,0.284,2.172,0.284
			c0.992,0,1.757-0.165,2.292-0.493c0.536-0.326,0.804-0.837,0.804-1.534c0-0.611-0.234-1.084-0.7-1.412
			c-0.466-0.325-1.036-0.628-1.711-0.907l-1.577-0.654c-0.595-0.258-1.16-0.546-1.695-0.864c-0.537-0.316-0.998-0.698-1.385-1.146
			c-0.387-0.446-0.695-0.972-0.923-1.577c-0.229-0.604-0.343-1.325-0.343-2.158c0-1.745,0.472-3.139,1.414-4.181
			c0.941-1.042,2.248-1.712,3.914-2.01v-2.679c0.316-0.099,0.635-0.163,0.952-0.192c0.317-0.031,0.585-0.045,0.802-0.045
			c0.22,0,0.493,0.014,0.821,0.045c0.326,0.029,0.64,0.093,0.937,0.192v2.59c0.694,0.08,1.394,0.208,2.098,0.387
			c0.704,0.178,1.452,0.407,2.248,0.685c-0.139,1.329-0.546,2.739-1.222,4.226c-0.675-0.297-1.339-0.545-1.992-0.744
			c-0.655-0.199-1.499-0.298-2.531-0.298c-0.258,0-0.511,0.015-0.759,0.044c-0.248,0.03-0.476,0.099-0.686,0.208
			c-0.207,0.108-0.375,0.258-0.505,0.447c-0.13,0.188-0.194,0.441-0.194,0.759c0,0.576,0.203,1.007,0.61,1.294
			c0.407,0.288,0.849,0.521,1.325,0.699l1.668,0.626c0.674,0.257,1.308,0.544,1.904,0.862c0.594,0.318,1.12,0.714,1.577,1.191
			c0.456,0.475,0.818,1.062,1.086,1.755c0.269,0.697,0.4,1.547,0.4,2.56c0,1.607-0.43,2.986-1.293,4.139
			c-0.863,1.149-2.108,1.952-3.735,2.409v3.513c-0.297,0.099-0.61,0.163-0.937,0.192c-0.328,0.032-0.602,0.046-0.821,0.046
			c-0.217,0-0.484-0.014-0.802-0.046c-0.317-0.029-0.636-0.094-0.952-0.192V36.375z"/>
	</g>
</g>
</svg>
