<?xml version="1.0" encoding="utf-8"?>
<!-- Generator: Adobe Illustrator 16.0.0, SVG Export Plug-In . SVG Version: 6.00 Build 0)  -->
<!DOCTYPE svg PUBLIC "-//W3C//DTD SVG 1.1//EN" "http://www.w3.org/Graphics/SVG/1.1/DTD/svg11.dtd">
<svg version="1.1" id="Layer_1" xmlns="http://www.w3.org/2000/svg" xmlns:xlink="http://www.w3.org/1999/xlink" x="0px" y="0px"
	 width="36px" height="32.417px" viewBox="0 0 36 32.417" enable-background="new 0 0 36 32.417" xml:space="preserve">
<g>
	<path fill="#8CC53F" d="M18.856,10.097c0.244,0,0.453,0.085,0.628,0.259c0.166,0.167,0.25,0.373,0.252,0.62l-0.002,3.496h3.499
		c0.245,0,0.449,0.083,0.618,0.25c0.173,0.174,0.261,0.384,0.261,0.628v1.739c-0.001,0.245-0.087,0.452-0.261,0.628
		c-0.167,0.167-0.375,0.25-0.618,0.25h-3.499l0.002,3.495c-0.002,0.246-0.086,0.452-0.252,0.617
		c-0.175,0.175-0.384,0.264-0.628,0.264h-1.739c-0.245,0-0.454-0.089-0.628-0.264c-0.167-0.165-0.25-0.371-0.25-0.617v-3.495h-3.497
		c-0.245,0-0.451-0.084-0.618-0.25c-0.172-0.177-0.261-0.384-0.261-0.628V15.35c0-0.244,0.089-0.454,0.261-0.628
		c0.167-0.167,0.374-0.25,0.618-0.25h1.081h2.416v-3.496c0-0.245,0.083-0.451,0.251-0.62c0.173-0.174,0.382-0.259,0.627-0.259
		H18.856 M18.856,7.606h-1.739c-0.902,0-1.75,0.352-2.388,0.99c-0.633,0.635-0.981,1.479-0.981,2.379v1.005h-1.006
		c-0.901,0-1.747,0.348-2.379,0.981c-0.641,0.643-0.99,1.49-0.99,2.388v1.739c0,0.894,0.347,1.735,0.978,2.376
		c0.645,0.646,1.489,0.993,2.392,0.993h1.006v1.005c0,0.901,0.349,1.747,0.979,2.381c0.634,0.635,1.484,0.988,2.389,0.988h1.739
		c0.905,0,1.754-0.354,2.393-0.993c0.625-0.629,0.972-1.466,0.978-2.36l-0.001-1.021h1.006c0.917-0.004,1.757-0.356,2.381-0.984
		c0.636-0.637,0.985-1.479,0.989-2.377V15.35c0-0.905-0.354-1.755-0.997-2.393c-0.632-0.63-1.474-0.977-2.372-0.977h-1.007
		l0.001-1.003c-0.005-0.913-0.353-1.751-0.977-2.377C20.603,7.956,19.756,7.606,18.856,7.606L18.856,7.606z"/>
	<path fill="#8CC53F" d="M34.129,32.269H1.844c-0.917,0-1.66-0.743-1.66-1.66v-3.821c0-0.917,0.744-1.661,1.66-1.661
		c0.917,0,1.661,0.744,1.661,1.661v2.162H32.47V3.491H3.505v14.869c0,0.917-0.744,1.66-1.661,1.66c-0.917,0-1.66-0.743-1.66-1.66
		V1.83c0-0.917,0.744-1.66,1.66-1.66h32.285c0.917,0,1.661,0.743,1.661,1.66v28.778C35.79,31.525,35.046,32.269,34.129,32.269z"/>
</g>
</svg>
