<?xml version="1.0" encoding="utf-8"?>
<!-- Generator: Adobe Illustrator 16.0.0, SVG Export Plug-In . SVG Version: 6.00 Build 0)  -->
<!DOCTYPE svg PUBLIC "-//W3C//DTD SVG 1.1//EN" "http://www.w3.org/Graphics/SVG/1.1/DTD/svg11.dtd">
<svg version="1.1" id="Layer_1" xmlns="http://www.w3.org/2000/svg" xmlns:xlink="http://www.w3.org/1999/xlink" x="0px" y="0px"
	 width="110px" height="110px" viewBox="0 0 110 110" enable-background="new 0 0 110 110" xml:space="preserve">
<polyline fill="#3D5B9B" points="2.127,65.148 2.127,2.126 107.873,2.126 107.873,107.875 2.127,107.875 2.127,92.348 "/>
<path fill="#133E67" d="M107.873,109.895H2.127c-1.116,0-2.021-0.903-2.021-2.02V92.348c0-1.116,0.905-2.02,2.021-2.02
	c1.115,0,2.02,0.903,2.02,2.02v13.506h101.707V4.146H4.146v61.002c0,1.116-0.904,2.02-2.02,2.02c-1.116,0-2.021-0.903-2.021-2.02
	V2.126c0-1.115,0.905-2.021,2.021-2.021h105.746c1.117,0,2.021,0.905,2.021,2.021v105.749
	C109.895,108.991,108.99,109.895,107.873,109.895z"/>
<path fill="#FFFFFF" d="M69.891,23.259H59.746c-6.021,0-12.717,2.531-12.717,11.26c0.028,3.041,0,5.953,0,9.231h-6.965v11.082h7.18
	V86.74h13.195V54.62h8.709l0.789-10.902h-9.727c0,0,0.023-4.853,0-6.26c0-3.447,3.59-3.251,3.805-3.251c1.707,0,5.029,0.006,5.881,0
	V23.259H69.891L69.891,23.259z"/>
</svg>
