<?xml version="1.0" encoding="utf-8"?>
<!-- Generator: Adobe Illustrator 16.0.0, SVG Export Plug-In . SVG Version: 6.00 Build 0)  -->
<!DOCTYPE svg PUBLIC "-//W3C//DTD SVG 1.1//EN" "http://www.w3.org/Graphics/SVG/1.1/DTD/svg11.dtd">
<svg version="1.1" id="Layer_1" xmlns="http://www.w3.org/2000/svg" xmlns:xlink="http://www.w3.org/1999/xlink" x="0px" y="0px"
	 width="31.788px" height="36px" viewBox="0 0 31.788 36" enable-background="new 0 0 31.788 36" xml:space="preserve">
<g>
	<path fill="#257EC2" d="M29.95,35.896H1.811c-0.954,0-1.728-0.773-1.728-1.729V1.804c0-0.955,0.773-1.728,1.728-1.728H29.95
		c0.957,0,1.73,0.773,1.73,1.728v32.364C31.681,35.123,30.907,35.896,29.95,35.896z M3.539,32.441h24.687V3.531H3.539V32.441z"/>
	<rect x="7.711" y="6.334" fill="#257EC2" width="3.52" height="4.694"/>
	<rect x="14.121" y="6.334" fill="#257EC2" width="3.521" height="4.694"/>
	<rect x="20.704" y="6.334" fill="#257EC2" width="3.521" height="4.694"/>
	<rect x="7.711" y="13.697" fill="#257EC2" width="3.52" height="4.693"/>
	<rect x="14.121" y="13.697" fill="#257EC2" width="3.521" height="4.693"/>
	<rect x="20.704" y="13.697" fill="#257EC2" width="3.521" height="4.693"/>
	<rect x="7.711" y="20.502" fill="#257EC2" width="3.52" height="4.693"/>
	<rect x="14.121" y="20.502" fill="#257EC2" width="3.521" height="4.693"/>
	<rect x="20.704" y="20.502" fill="#257EC2" width="3.521" height="4.693"/>
	<rect x="11.523" y="28.112" fill="#257EC2" width="8.716" height="5.43"/>
</g>
</svg>
