<?xml version="1.0" encoding="utf-8"?>
<!-- Generator: Adobe Illustrator 16.0.0, SVG Export Plug-In . SVG Version: 6.00 Build 0)  -->
<!DOCTYPE svg PUBLIC "-//W3C//DTD SVG 1.1//EN" "http://www.w3.org/Graphics/SVG/1.1/DTD/svg11.dtd">
<svg version="1.1" id="Layer_1" xmlns="http://www.w3.org/2000/svg" xmlns:xlink="http://www.w3.org/1999/xlink" x="0px" y="0px"
	 width="58.834px" height="64px" viewBox="0 0 58.834 64" enable-background="new 0 0 58.834 64" xml:space="preserve">
<g>
	<path fill="#8CC53F" d="M28.918,43.836c-8.133,0-15.539-4.476-19.326-11.679c-0.485-0.923-0.13-2.065,0.793-2.55
		c0.922-0.485,2.064-0.131,2.55,0.792c3.132,5.96,9.256,9.661,15.983,9.661c9.949,0,18.043-8.094,18.043-18.043
		S38.867,3.974,28.918,3.974c-9.95,0-18.044,8.095-18.044,18.044c0,1.042-0.845,1.888-1.888,1.888c-1.042,0-1.888-0.846-1.888-1.888
		c0-12.031,9.789-21.82,21.82-21.82s21.82,9.789,21.82,21.82C50.738,34.049,40.95,43.836,28.918,43.836z"/>
	<g>
		<path fill="#8CC53F" d="M16.175,63.803c-0.088,0-0.178-0.008-0.267-0.024c-0.565-0.109-1.008-0.548-1.122-1.112L12.654,52.07
			L2.156,54.648c-0.563,0.14-1.15-0.078-1.488-0.549c-0.337-0.469-0.355-1.097-0.046-1.585l11.762-18.528
			c0.419-0.661,1.294-0.855,1.955-0.437c0.66,0.419,0.856,1.294,0.437,1.954L4.902,51.057l8.511-2.091
			c0.375-0.09,0.771-0.025,1.097,0.18c0.326,0.208,0.553,0.538,0.629,0.916l1.74,8.648l10.852-16.662
			c0.428-0.655,1.304-0.842,1.959-0.414c0.655,0.428,0.841,1.304,0.414,1.959L17.361,63.16
			C17.097,63.566,16.648,63.803,16.175,63.803z"/>
		<path fill="#8CC53F" d="M42.797,63.803c-0.475,0-0.926-0.239-1.189-0.648L28.399,42.702c-0.424-0.656-0.235-1.532,0.421-1.957
			s1.534-0.235,1.958,0.422l11.318,17.525l1.735-8.63c0.077-0.378,0.305-0.708,0.63-0.916c0.326-0.206,0.722-0.27,1.097-0.18
			l8.513,2.092L43.689,34.708c-0.418-0.66-0.223-1.535,0.438-1.954c0.659-0.419,1.535-0.224,1.955,0.437L58.35,52.514
			c0.311,0.488,0.292,1.116-0.046,1.585c-0.337,0.471-0.93,0.688-1.487,0.549L46.317,52.07l-2.133,10.597
			c-0.113,0.565-0.558,1.005-1.124,1.112C42.973,63.795,42.884,63.803,42.797,63.803z"/>
	</g>
</g>
</svg>
