<?xml version="1.0" encoding="utf-8"?>
<!-- Generator: Adobe Illustrator 16.0.0, SVG Export Plug-In . SVG Version: 6.00 Build 0)  -->
<!DOCTYPE svg PUBLIC "-//W3C//DTD SVG 1.1//EN" "http://www.w3.org/Graphics/SVG/1.1/DTD/svg11.dtd">
<svg version="1.1" id="Layer_1" xmlns="http://www.w3.org/2000/svg" xmlns:xlink="http://www.w3.org/1999/xlink" x="0px" y="0px"
	 width="36px" height="36px" viewBox="0 0 36 36" enable-background="new 0 0 36 36" xml:space="preserve">
<path fill="#8CC53F" d="M17.978,35.955c-6.702,0-12.803-3.687-15.922-9.623c-0.42-0.8-0.112-1.788,0.687-2.208
	c0.798-0.422,1.788-0.112,2.208,0.687c2.552,4.857,7.543,7.875,13.027,7.875c8.11,0,14.708-6.598,14.708-14.708
	c0-8.11-6.599-14.708-14.708-14.708C9.868,3.27,3.27,9.868,3.27,17.978c0,0.903-0.732,1.635-1.635,1.635S0,18.881,0,17.978
	C0,8.065,8.065,0,17.978,0c9.914,0,17.978,8.065,17.978,17.978C35.956,27.891,27.892,35.955,17.978,35.955z"/>
<path fill="#8CC53F" d="M24.235,20.092h-7.994V8.371c0-0.902,0.732-1.635,1.635-1.635c0.903,0,1.636,0.732,1.636,1.635v8.451h4.724
	c0.902,0,1.635,0.732,1.635,1.634C25.87,19.359,25.138,20.092,24.235,20.092z"/>
</svg>
