<?xml version="1.0" encoding="utf-8"?>
<!-- Generator: Adobe Illustrator 16.0.0, SVG Export Plug-In . SVG Version: 6.00 Build 0)  -->
<!DOCTYPE svg PUBLIC "-//W3C//DTD SVG 1.1//EN" "http://www.w3.org/Graphics/SVG/1.1/DTD/svg11.dtd">
<svg version="1.1" id="Layer_1" xmlns="http://www.w3.org/2000/svg" xmlns:xlink="http://www.w3.org/1999/xlink" x="0px" y="0px"
	 width="27.092px" height="36px" viewBox="0 0 27.092 36" enable-background="new 0 0 27.092 36" xml:space="preserve">
<g>
	<path fill="#8CC53F" d="M20.915,35.907H6.177c-1.801,0-3.291-0.551-4.428-1.635C0.589,33.169,0,31.687,0,29.865
		c0-0.63,0.021-1.256,0.063-1.858c0.01-0.146,0.023-0.414,0.038-0.736c0.063-1.296,0.123-2.413,0.219-2.955
		c0.131-0.726,0.299-1.412,0.5-2.043c0.217-0.677,0.507-1.336,0.866-1.965c0.385-0.674,0.836-1.26,1.34-1.745
		c0.56-0.532,1.226-0.951,1.988-1.251c0.755-0.301,1.597-0.456,2.494-0.456c0.546,0,1.01,0.235,1.626,0.64l1.243,0.799
		c0.337,0.214,0.823,0.427,1.434,0.625c1.144,0.371,2.319,0.372,3.47-0.001c0.609-0.198,1.096-0.411,1.442-0.63l1.241-0.801
		c0.611-0.398,1.075-0.632,1.617-0.632c0.896,0,1.736,0.154,2.499,0.458c0.757,0.298,1.425,0.717,1.978,1.242
		c0.513,0.494,0.963,1.082,1.346,1.753c0.357,0.626,0.649,1.287,0.865,1.964c0.203,0.633,0.371,1.321,0.5,2.043
		c0.097,0.538,0.156,1.648,0.218,2.937c0.017,0.331,0.03,0.604,0.041,0.752c0.041,0.605,0.062,1.231,0.062,1.861
		c0,1.82-0.59,3.303-1.751,4.409C24.207,35.356,22.717,35.907,20.915,35.907z M7.178,20.215c-0.341,0.027-0.652,0.096-0.931,0.207
		c-0.366,0.145-0.669,0.331-0.909,0.56c-0.267,0.256-0.52,0.59-0.745,0.984c-0.243,0.427-0.44,0.873-0.585,1.324
		c-0.156,0.491-0.289,1.036-0.394,1.614c-0.066,0.373-0.137,1.829-0.171,2.528c-0.017,0.354-0.031,0.645-0.042,0.804
		c-0.037,0.527-0.055,1.075-0.055,1.629c0,1.173,0.406,1.693,0.71,1.984c0.503,0.479,1.195,0.711,2.12,0.711h14.738
		c0.924,0,1.618-0.232,2.117-0.709c0.307-0.293,0.713-0.813,0.713-1.986c0-0.554-0.018-1.102-0.055-1.629
		c-0.012-0.16-0.025-0.459-0.044-0.821c-0.033-0.694-0.104-2.14-0.171-2.511c-0.102-0.577-0.233-1.119-0.393-1.613
		c-0.146-0.454-0.341-0.899-0.585-1.324c-0.225-0.396-0.477-0.729-0.751-0.993c-0.232-0.221-0.537-0.407-0.896-0.549
		c-0.287-0.114-0.596-0.184-0.938-0.211c-0.038,0.025-0.079,0.052-0.124,0.081l-1.265,0.814c-0.601,0.381-1.319,0.702-2.208,0.992
		c-1.826,0.591-3.722,0.589-5.537,0.002c-0.892-0.291-1.611-0.613-2.202-0.987l-1.266-0.815C7.262,20.269,7.218,20.241,7.178,20.215
		z"/>
	<path fill="#8CC53F" d="M13.546,16.264c-2.24,0-4.178-0.804-5.762-2.389c-1.583-1.583-2.387-3.522-2.387-5.762
		c0-2.242,0.804-4.181,2.389-5.762c1.584-1.583,3.523-2.387,5.76-2.387c2.236,0,4.176,0.804,5.761,2.388
		c1.584,1.58,2.388,3.519,2.388,5.761c0,2.24-0.803,4.179-2.388,5.762C17.724,15.459,15.785,16.264,13.546,16.264z M13.546,3.31
		c-1.336,0-2.447,0.461-3.396,1.409C9.203,5.663,8.743,6.774,8.743,8.113c0,1.338,0.46,2.449,1.407,3.396
		c0.947,0.949,2.058,1.409,3.396,1.409c1.337,0,2.447-0.461,3.395-1.408c0.947-0.947,1.407-2.058,1.407-3.396
		c0-1.34-0.46-2.45-1.404-3.393C15.992,3.771,14.883,3.31,13.546,3.31z"/>
</g>
</svg>
