<?xml version="1.0" encoding="utf-8"?>
<!-- Generator: Adobe Illustrator 16.0.0, SVG Export Plug-In . SVG Version: 6.00 Build 0)  -->
<!DOCTYPE svg PUBLIC "-//W3C//DTD SVG 1.1//EN" "http://www.w3.org/Graphics/SVG/1.1/DTD/svg11.dtd">
<svg version="1.1" id="Layer_1" xmlns="http://www.w3.org/2000/svg" xmlns:xlink="http://www.w3.org/1999/xlink" x="0px" y="0px"
	 width="124px" height="124px" viewBox="0 0 124 124" enable-background="new 0 0 124 124" xml:space="preserve">
<g>
	<g>
		<path fill="#FFFFFF" d="M43.317,91.473c-1.004,0-1.868-0.37-2.604-1.103c-0.734-0.732-1.105-1.602-1.105-2.611V35.792
			c0-1.004,0.371-1.878,1.105-2.611c0.737-0.732,1.6-1.099,2.604-1.099c1.012,0,1.876,0.366,2.617,1.099l44.968,25.984
			c0.731,0.734,1.1,1.606,1.1,2.61c0,1.011-0.368,1.882-1.1,2.61L45.934,90.37C45.193,91.103,44.33,91.473,43.317,91.473z"/>
	</g>
	<path fill="#FFFFFF" d="M62.103,123.254c-11.086,0-21.474-2.777-30.87-8.264c-3.532-2.061-4.723-6.592-2.664-10.119
		c2.061-3.53,6.592-4.719,10.119-2.662c7.205,4.2,14.864,6.245,23.415,6.245c8.548,0,16.208-2.045,23.417-6.245
		c7.229-4.218,12.793-9.784,17.016-17.016c4.199-7.202,6.242-14.857,6.242-23.414c0-8.556-2.043-16.216-6.242-23.416
		c-4.219-7.228-9.787-12.794-17.02-17.019c-7.197-4.199-14.858-6.242-23.414-6.242c-8.554,0-16.214,2.042-23.415,6.243
		c-7.231,4.223-12.798,9.788-17.017,17.018c-4.202,7.2-6.244,14.86-6.244,23.416c0,4.498,0.593,8.857,1.761,12.959
		c1.12,3.932-1.158,8.025-5.087,9.145c-3.931,1.11-8.024-1.158-9.145-5.09c-1.544-5.418-2.329-11.145-2.329-17.014
		c0-11.091,2.778-21.479,8.26-30.873c5.461-9.36,12.978-16.876,22.342-22.341c9.395-5.485,19.78-8.262,30.873-8.262
		c11.089,0,21.476,2.777,30.875,8.26c9.363,5.468,16.879,12.985,22.34,22.343c5.482,9.394,8.26,19.782,8.26,30.873
		c0,11.093-2.777,21.476-8.26,30.871c-5.465,9.364-12.984,16.881-22.34,22.34C83.575,120.477,73.188,123.254,62.103,123.254z"/>
</g>
</svg>
